<<widget "cheeklick">><<nobr>>
	<<set _n to $args[0]>>
	<<set _npcff to ["enjoys","smiles at","leers at","grins at"]>>
	<<set _npccr to ["pressed","shoved","mashed","grinding"]>>
	<<set _i to random(0, 3)>>
	<<set _j to random(0, 3)>>
	<<if $args[0]>>
		<<if $NPCList[_n].penis is "mouth">>
			<<He>> _npcff[_i] the sight of your face _npccr[_j] against <<his>> crotch.
			<<neutral 1>>
		<<elseif $NPCList[_n].penis is "mouthimminent" or $NPCList[_n].penis is "mouthentrance">>
			<<He>> _npcff[_i] the sight of <<his>> penis _npccr[_j] against your mouth.
			<<neutral 1>>
		<<elseif $NPCList[_n].vagina is "mouthentrance">>
			<<He>> _npcff[_i] the sight of your face _npccr[_j] against <<his>> crotch.
			<<neutral 1>>
		<<else>>
			<<if $consensual is 1>>
				<<switch random(1, 4)>>
				<<case 1>>
					<<He>> licks your cheek.
					<<neutral 3>>
					<<if random(1, 2) is 2>>
						<<bodypart_admire left_cheek>>
					<<else>>
						<<bodypart_admire right_cheek>>
					<</if>>
				<<case 2>>
					<<He>> strokes your hair.
					<<neutral 3>>
					<<bodypart_admire forehead>>
				<<case 3>>
					<<He>> nibbles your ear.
					<<neutral 3>>
					<<bodypart_admire forehead>>
				<<case 4>>
					<<He>> nuzzles your neck.
					<<neutral 3>>
					<<bodypart_admire breasts>>
				<</switch>>
			<<else>>
				<<switch random(1, 4)>>
				<<case 1>>
					<<He>> licks your cheek.
					<<neutral 3>>
					<<if random(1, 2) is 2>>
						<<bodypart_admire left_cheek>>
					<<else>>
						<<bodypart_admire right_cheek>>
					<</if>>
				<<case 2>>
					<<He>> tugs at your hair.
					<<neutral 3>>
					<<bodypart_admire forehead>>
				<<case 3>>
					<<He>> bites your ear.
					<<neutral 3>>
					<<if random(1, 2) is 2>>
						<<bodypart_admire left_cheek>>
					<<else>>
						<<bodypart_admire right_cheek>>
					<</if>>
				<<case 4>>
					<<He>> grips your neck.
					<<neutral 3>>
					<<bodypart_admire breasts>>
				<</switch>>
			<</if>>
		<</if>>
	<</if>>
<</nobr>><</widget>>