<<widget "steed_text">><<nobr>>
<<if $steed is "male">>
	<<set _text_output to "centaur">>
<<elseif $steed is "female">>
	<<set _text_output to "centaur">>
<<elseif $steed is "mare">>
	<<set _text_output to "mare">>
<<elseif $steed is "stallion">>
	<<set _text_output to "stallion">>
<</if>>
<<print _text_output>>
<</nobr>><</widget>>

<<widget "steed_he">><<nobr>>
<<if $steed is "male">>
	<<set _text_output to "he">>
<<elseif $steed is "female">>
	<<set _text_output to "she">>
<<elseif $steed is "mare">>
	<<set _text_output to "it">>
<<elseif $steed is "stallion">>
	<<set _text_output to "it">>
<</if>>
<<print _text_output>>
<</nobr>><</widget>>

<<widget "steed_He">><<nobr>>
<<if $steed is "male">>
	<<set _text_output to "He">>
<<elseif $steed is "female">>
	<<set _text_output to "She">>
<<elseif $steed is "mare">>
	<<set _text_output to "It">>
<<elseif $steed is "stallion">>
	<<set _text_output to "It">>
<</if>>
<<print _text_output>>
<</nobr>><</widget>>

<<widget "steed_him">><<nobr>>
<<if $steed is "male">>
	<<set _text_output to "him">>
<<elseif $steed is "female">>
	<<set _text_output to "her">>
<<elseif $steed is "mare">>
	<<set _text_output to "it">>
<<elseif $steed is "stallion">>
	<<set _text_output to "it">>
<</if>>
<<print _text_output>>
<</nobr>><</widget>>

<<widget "steed_his">><<nobr>>
<<if $steed is "male">>
	<<set _text_output to "his">>
<<elseif $steed is "female">>
	<<set _text_output to "her">>
<<elseif $steed is "mare">>
	<<set _text_output to "its">>
<<elseif $steed is "stallion">>
	<<set _text_output to "its">>
<</if>>
<<print _text_output>>
<</nobr>><</widget>>

<<widget "steed_init">><<nobr>>
<<if $steed is "male">>
	<<if $cbchance gte random(1, 100)>>
		<<beastNEWinit 1 horse m vagina monster>>
		<<set $NPCList[_n].stance to "top">><<set $position to "missionary">><<set $position_lock to 1>>
	<<else>>
		<<beastNEWinit 1 horse m penis monster>>
		<<set $NPCList[_n].stance to "top">><<set $position to "doggy">><<set $position_lock to 1>>
	<</if>>
<<elseif $steed is "female">>
	<<if $dgchance gte random(1, 100)>>
		<<beastNEWinit 1 horse f penis monster>>
		<<set $NPCList[_n].stance to "top">><<set $position to "doggy">><<set $position_lock to 1>>
	<<else>>
		<<beastNEWinit 1 horse f vagina monster>>
		<<set $NPCList[_n].stance to "top">><<set $position to "missionary">><<set $position_lock to 1>>
	<</if>>
<<elseif $steed is "mare">>
	<<beastNEWinit 1 horse f vagina beast>>
	<<set $NPCList[_n].stance to "top">><<set $position to "missionary">><<set $position_lock to 1>>
<<else>>
	<<beastNEWinit 1 horse m penis beast>>
	<<set $NPCList[_n].stance to "top">><<set $position to "doggy">><<set $position_lock to 1>>
<</if>>
<<prop haybale>>
<</nobr>><</widget>>