You've pushed yourself too much.
<br><br>
<<passout>>

<<set $danger to random(1, 10000)>>

<<if $danger gte (9900 - $allure)>>

	<<if $rng gte 1>>
	<<link [[Wake up|Beach Abduction]]>><<strip>><</link>>
	<</if>>

<<else>>
<<ambulance>>
<</if>>

<<pass 1 hour>>

<<set $trauma +=10>><<set $stress -= 2000>>