<<silently>><<effects>><</silently>>
/*<<Avatar>>*/
<<link "<<">><<set $pain -= 10>><<goto "Testing Room">><</link>>
<<link "<">><<set $pain -= 5>><<goto "Testing Room">><</link>>
Pain (<<= $pain>>)
<<link ">">><<set $pain += 5>><<goto "Testing Room">><</link>>
<<link ">>">><<set $pain += 10>><<goto "Testing Room">><</link>>
<br>
<<link "<<">><<arousal -1000>><<goto "Testing Room">><</link>>
<<link "<">><<arousal -100>><<goto "Testing Room">><</link>>
Arousal (<<= $arousal>>)
<<link ">">><<arousal 100>><<goto "Testing Room">><</link>>
<<link ">>">><<arousal 1000>><<goto "Testing Room">><</link>>
<br>
<<link "<<">><<set $stress -= 1000>><<goto "Testing Room">><</link>>
<<link "<">><<set $stress -= 100>><<goto "Testing Room">><</link>>
Stress (<<= $stress>>)
<<link ">">><<set $stress += 100>><<goto "Testing Room">><</link>>
<<link ">>">><<set $stress += 1000>><<goto "Testing Room">><</link>>
<br>
<<link "<<">><<set $trauma -= 1000>><<goto "Testing Room">><</link>>
<<link "<">><<set $trauma -= 100>><<goto "Testing Room">><</link>>
Trauma (<<= $trauma>>)
<<link ">">><<set $trauma += 100>><<goto "Testing Room">><</link>>
<<link ">>">><<set $trauma += 1000>><<goto "Testing Room">><</link>>
<br><br>

<<link "<<">><<set $promiscuity -= 10>><<goto "Testing Room">><</link>>
<<link "<">><<set $promiscuity -= 2>><<goto "Testing Room">><</link>>
Promiscuity (<<= $promiscuity>>)
<<link ">">><<set $promiscuity += 2>><<goto "Testing Room">><</link>>
<<link ">>">><<set $promiscuity += 10>><<goto "Testing Room">><</link>>
<br>
<<link "<<">><<set $exhibitionism -= 10>><<goto "Testing Room">><</link>>
<<link "<">><<set $exhibitionism -= 2>><<goto "Testing Room">><</link>>
Exhibitionism (<<= $exhibitionism>>)
<<link ">">><<set $exhibitionism += 2>><<goto "Testing Room">><</link>>
<<link ">>">><<set $exhibitionism += 10>><<goto "Testing Room">><</link>>
<br><br>

Toggle:
<<link "Sex">><<if $player.gender is "f">>
<<set $vaginaexist to 0>><<set $player.gender to "m">><<set $penisexist to 1>>
<<else>><<set $penisexist to 0>><<set $player.gender to "f">><<set $vaginaexist to 1>><</if>>
<<goto "Testing Room">><</link>> |
<<link "Gender">><<if $player.sex is "f">>
<<set $vaginaexist to 0>><<set $player.sex to "m">><<set $penisexist to 1>>
<<else>><<set $penisexist to 0>><<set $player.sex to "f">><<set $vaginaexist to 1>><</if>>
<<goto "Testing Room">><</link>> |
<<link "Virginity">>
<<if $player.virginity.penile isnot true or $player.virginity.vaginal isnot true>>
<<set $player.virginity.vaginal to true>><<set $player.virginity.penile to true>><<set $player.virginity.anal to true>><<set $player.virginity.oral to true>>
<<else>>
<<set $player.virginity.vaginal to false>><<set $player.virginity.penile to false>><<set $player.virginity.anal to false>><<set $player.virginity.oral to false>><<set $player.virginity.temple to false>>
<</if>>
<<goto "Testing Room">><</link>> |
<<link "Hirsute">>
<<if $hirsutedisable is "f">>
<<set $hirsutedisable to "t">>
<<else>>
<<set $hirsutedisable to "f">>
<</if>>
<<goto "Testing Room">><</link>> |
<<link "Bound Left Arm">>
<<if $leftarm is "bound">>
<<set $leftarm to 0>><<set $leftboundcarry to 0>>
<<else>>
<<set $leftarm to "bound">>
<</if>>
<<goto "Testing Room">><</link>> |
<<link "Bound Right Arm">>
<<if $rightarm is "bound">>
<<set $rightarm to 0>><<set $rightboundcarry to 0>>
<<else>>
<<set $rightarm to "bound">>
<</if>>
<<goto "Testing Room">><</link>>
<br><br>

Breast Size - 0, 1, 2, 3, 4, 5, 6, 7, 8, 9, 10, 11, 12
<br>

Hair Colour (<<= $haircolour>>):
<<link "Black">><<set $haircolour to "black">><<goto "Testing Room">><</link>> |
<<link "Brown">><<set $haircolour to "brown">><<goto "Testing Room">><</link>> |
<<link "Red">><<set $haircolour to "red">><<goto "Testing Room">><</link>> |
<<link "Ginger">><<set $haircolour to "ginger">><<goto "Testing Room">><</link>> |
<<link "Blond">><<set $haircolour to "blond">><<goto "Testing Room">><</link>> |
<<link "Green">><<set $haircolour to "green">><<goto "Testing Room">><</link>> |
<<link "Blue">><<set $haircolour to "blue">><<goto "Testing Room">><</link>> |
<<link "Purple">><<set $haircolour to "purple">><<goto "Testing Room">><</link>>
<br>

<<link "<<">><<set $hairlength -= 100>><<goto "Testing Room">><</link>>
<<link "<">><<set $hairlength -= 10>><<goto "Testing Room">><</link>>
Hair Length (<<= $hairlength>>)
<<link ">">><<set $hairlength += 10>><<goto "Testing Room">><</link>>
<<link ">>">><<set $hairlength += 100>><<goto "Testing Room">><</link>>
<br>

Eye Colour (<<= $eyecolour>>):
<<link "Hazel">><<set $eyecolour to "hazel">><<goto "Testing Room">><</link>> |
<<link "Amber">><<set $eyecolour to "amber">><<goto "Testing Room">><</link>> |
<<link "Green">><<set $eyecolour to "green">><<goto "Testing Room">><</link>> |
<<link "Dark Blue">><<set $eyecolour to "dark blue">><<goto "Testing Room">><</link>> |
<<link "Light Blue">><<set $eyecolour to "light blue">><<goto "Testing Room">><</link>> |
<<link "Purple">><<set $eyecolour to "purple">><<goto "Testing Room">><</link>>
<br><br>

<<link "<">><<set $wolfgirl -= 1>><<goto "Testing Room">><</link>>
Wolf (<<= $wolfgirl>>)
<<link ">">><<set $wolfgirl += 1>><<goto "Testing Room">><</link>> |
<<link "<">><<set $angel -= 1>><<goto "Testing Room">><</link>>
Angel (<<= $angel>>)
<<link ">">><<set $angel += 1>><<goto "Testing Room">><</link>> |
<<link "<">><<set $demon -= 1>><<goto "Testing Room">><</link>>
Demon (<<= $demon>>)
<<link ">">><<set $demon += 1>><<goto "Testing Room">><</link>> |
<<link "<">><<set $fallenangel -= 1>><<goto "Testing Room">><</link>>
Fallen Angel (<<= $fallenangel>>)
<<link ">">><<set $fallenangel += 1>><<goto "Testing Room">><</link>>
<br><br>

Semen:
<<link "<">><<set $vaginasemen -= 1>><<goto "Testing Room">><</link>>
Vagina (<<= $vaginasemen>>)
<<link ">">><<set $vaginasemen += 1>><<goto "Testing Room">><</link>> |
<<link "<">><<set $anussemen -= 1>><<goto "Testing Room">><</link>>
Anus (<<= $anussemen>>)
<<link ">">><<set $anussemen += 1>><<goto "Testing Room">><</link>> |
<<link "<">><<set $mouthsemen -= 1>><<goto "Testing Room">><</link>>
Mouth (<<= $mouthsemen>>)
<<link ">">><<set $mouthsemen += 1>><<goto "Testing Room">><</link>>
<br>
Goo:
<<link "<">><<set $vaginagoo -= 1>><<goto "Testing Room">><</link>>
Vagina (<<= $vaginagoo>>)
<<link ">">><<set $vaginagoo += 1>><<goto "Testing Room">><</link>> |
<<link "<">><<set $anusgoo -= 1>><<goto "Testing Room">><</link>>
Anus (<<= $anusgoo>>)
<<link ">">><<set $anusgoo += 1>><<goto "Testing Room">><</link>> |
<<link "<">><<set $mouthgoo -= 1>><<goto "Testing Room">><</link>>
Mouth (<<= $mouthgoo>>)
<<link ">">><<set $mouthgoo += 1>><<goto "Testing Room">><</link>>
<br>

Parasite:
<<link "Chest">>
<<if $parasite.nipples.name is undefined>><<parasite nipples urchin>>
<<else>><<removeparasite nipples>><</if>>
<<goto "Testing Room">><</link>> |
<<link "Penis">>
<<if $parasite.penis.name is undefined>><<parasite penis urchin>>
<<else>><<removeparasite penis>><</if>>
<<goto "Testing Room">><</link>> |
<<link "Clit">>
<<if $parasite.clit.name is undefined>><<parasite clit urchin>>
<<else>><<removeparasite clit>><</if>>
<<goto "Testing Room">><</link>>
<br><br>

Upper Clothes: <<link "<<">><<set $worn.upper.integrity -= 10>><<goto "Testing Room">><</link>>
<<link "<">><<set $worn.upper.integrity -= 1>><<goto "Testing Room">><</link>>
Integrity (<<= $worn.upper.integrity>>)
<<link ">">><<set $worn.upper.integrity += 1>><<goto "Testing Room">><</link>>
<<link ">>">><<set $worn.upper.integrity += 10>><<goto "Testing Room">><</link>> |
<<link "<">><<set $upperwet -= 100>><<goto "Testing Room">><</link>>
Wet (<<= $upperwet>>)
<<link ">">><<set $upperwet += 1>><<goto "Testing Room">><</link>>
<br>

Lower Clothes: <<link "<<">><<set $worn.lower.integrity -= 10>><<goto "Testing Room">><</link>>
<<link "<">><<set $worn.lower.integrity -= 1>><<goto "Testing Room">><</link>>
Integrity (<<= $worn.lower.integrity>>)
<<link ">">><<set $worn.lower.integrity += 1>><<goto "Testing Room">><</link>>
<<link ">>">><<set $worn.lower.integrity += 10>><<goto "Testing Room">><</link>> |
<<link "<">><<set $lowerwet -= 100>><<goto "Testing Room">><</link>>
Wet (<<= $lowerwet>>)
<<link ">">><<set $lowerwet += 1>><<goto "Testing Room">><</link>>
<br>

Under Bottoms: <<link "<<">><<set $worn.under_lower.integrity -= 10>><<goto "Testing Room">><</link>>
<<link "<">><<set $worn.under_lower.integrity -= 1>><<goto "Testing Room">><</link>>
Integrity (<<= $worn.under_lower.integrity>>)
<<link ">">><<set $worn.under_lower.integrity += 1>><<goto "Testing Room">><</link>>
<<link ">>">><<set $worn.under_lower.integrity += 10>><<goto "Testing Room">><</link>> |
<<link "<">><<set $underlowerwet -= 100>><<goto "Testing Room">><</link>>
Wet (<<= $underlowerwet>>)
<<link ">">><<set $underlowerwet += 1>><<goto "Testing Room">><</link>>
<br>

Under Top: <<link "<<">><<set $worn.under_upper.integrity -= 10>><<goto "Testing Room">><</link>>
<<link "<">><<set $worn.under_upper.integrity -= 1>><<goto "Testing Room">><</link>>
Integrity (<<= $worn.under_upper.integrity>>)
<<link ">">><<set $worn.under_upper.integrity += 1>><<goto "Testing Room">><</link>>
<<link ">>">><<set $worn.under_upper.integrity += 10>><<goto "Testing Room">><</link>> |
<<link "<">><<set $underupperwet -= 100>><<goto "Testing Room">><</link>>
Wet (<<= $underupperwet>>)
<<link ">">><<set $underupperwet += 1>><<goto "Testing Room">><</link>>
<br>

/*ToDo: Add handling for toggling clothing.*/
/*ToDo: Wardrobe and Shop*/
<br><br>

<<link [[Bedroom]]>><</link>>
<br>