<<if $molestationstart is 1>>
<<set $molestationstart to 0>>
<<controlloss>>
<<violence 1>>
<<neutral 1>>
<<molested>>

<<beastNEWinit 1 dog>>
	<<if $phase is 1>>
	<<set $NPCList[0].stance to "top">>
	<<set $enemyanger += 40>>
	<<set $enemytrust -= 40>>
	<</if>>
<<set $rescue to 1>>
<</if>>

<<effects>>
<<effectsman>>
<br>
<<beast $enemyno>>
<br><br>

<<stateman>>
<br><br>
<<actionsman>>

<<if $alarm is 1 and $rescue is 1>>
	<span id="next"><<link [[Next|Domus Entrance Dog Finish]]>><</link>></span><<nexttext>>
<<elseif $enemyarousal gte $enemyarousalmax>>
	<span id="next"><<link [[Next|Domus Entrance Dog Finish]]>><</link>></span><<nexttext>>
<<elseif $enemyhealth lte 0>>
	<span id="next"><<link [[Next|Domus Entrance Dog Finish]]>><</link>></span><<nexttext>>
<<else>>
	<span id="next"><<link [[Next|Domus Entrance Dog]]>><</link>></span><<nexttext>>
<</if>>