<<widget "orgasm">><<nobr>>
	<<if $orgasmcount lte 1>>
		<<set $stress -= 200>>
		<<if $drugged gte 1>>
			<<arousal -4000>><<set $drugged -= 20>>
		<<else>>
			<<arousal -8000>>
		<</if>>
		<span class="pink">You shudder from the sudden release.</span>
		<br><br>
	<<elseif $orgasmcount lte 2>>
		<<set $stress -= 200>>
		<<if $drugged gte 1>>
			<<arousal -5000>><<set $drugged -= 20>>
		<<else>>
			<<arousal -9000>>
		<</if>>
		<span class="pink">You shudder from the sudden release.</span>
		<br><br>
	<<elseif $orgasmcount lte 3>>
		<<set $stress -= 200>>
		<<if $drugged gte 1>>
			<<arousal -6000>><<set $drugged -= 20>>
		<<else>>
			<<arousal -10000>>
		<</if>>
		<span class="pink">You shudder from the sudden release.</span>
		<br><br>
	<<elseif $orgasmcount lte 4>>
		<<set $stress -= 200>>
		<<if $drugged gte 1>>
			<<arousal -7000>><<set $drugged -= 20>>
		<<else>>
			<<arousal -10000>>
		<</if>>
		<span class="pink">You shudder from the sudden release.</span>
		<br><br>
	<<elseif $orgasmcount lte 5>>
		<<set $stress -= 200>>
		<<if $drugged gte 1>>
			<<arousal -8000>><<set $drugged -= 20>>
		<<else>>
			<<arousal -10000>>
		<</if>>
		<span class="pink">You feel spent.</span>
		<br><br>
	<<elseif $orgasmcount lte 6>>
		<<set $stress -= 100>>
		<<if $drugged gte 1>>
			<<arousal -7000>><<set $drugged -= 20>>
		<<else>>
			<<arousal -10000>>
		<</if>>
		<span class="pink">Despite feeling like you've nothing left to give, the orgasm is intense.</span>
		<br><br>
	<<elseif $orgasmcount lte 7>>
		<<set $stress -= 100>>
		<<if $drugged gte 1>>
			<<arousal -6000>><<set $drugged -= 20>>
		<<else>>
			<<arousal -10000>>
		<</if>>
		<span class="pink">Despite feeling like you've nothing left to give, the orgasm is intense.</span>
		<br><br>
	<<elseif $orgasmcount lte 8>>
		<<set $stress -= 100>>
		<<if $drugged gte 1>>
			<<arousal -5000>><<set $drugged -= 20>>
		<<else>>
			<<arousal -10000>>
		<</if>>
		<span class="pink">Despite feeling like you've nothing left to give, the orgasm is intense.</span>
		<br><br>
	<<elseif $orgasmcount lte 9>>
		<<if $drugged gte 1>>
			<<arousal -4000>><<set $drugged -= 20>>
		<<else>>
			<<arousal -10000>>
		<</if>>
		<span class="pink">Your body is tiring from the repeated climaxes.</span>
		<br><br>
	<<elseif $orgasmcount lte 10>>
		<<if $drugged gte 1>>
			<<arousal -3000>><<set $drugged -= 20>>
		<<else>>
			<<arousal -10000>>
		<</if>>
		<span class="pink">Your body is tiring from the repeated climaxes.</span>
		<br><br>
	<<elseif $orgasmcount lte 11>>
		<<if $drugged gte 1>>
			<<arousal -2000>><<set $drugged -= 20>>
		<<else>>
			<<arousal -10000>>
		<</if>>
		<span class="pink">Your body is tiring from the repeated climaxes.</span>
		<br><br>
	<<elseif $orgasmcount lte 18>>
		<<if $drugged gte 1>>
			<<arousal -2000>><<set $drugged -= 20>>
		<<else>>
			<<arousal -10000>>
		<</if>>
		<<set $stress += 100>>
		<span class="pink">The repeated orgasms are causing you great strain. You don't want to cum any more.</span>
		<br><br>
	<<elseif $orgasmcount lte 23>>
		<<if $drugged gte 1>>
			<<arousal -2000>><<set $drugged -= 20>>
		<<else>>
			<<arousal -10000>>
		<</if>>
		<<set $stress += 100>><<combattrauma 10>>
		<span class="pink">Your mind and body buckle under the continued orgasms.</span>
		<br><br>
	<<else>>
		<<if $drugged gte 1>>
			<<arousal -2000>><<set $drugged -= 20>>
		<<else>>
			<<arousal -10000>>
		<</if>>
		<<set $stress += 100>><<combattrauma 10>><<set $pain += 5>>
		<span class="red">You've had so many orgasms in such a short span of time that you no longer gain any pleasure from them. They're painful, both physically and psychologically.</span>
		<br><br>
	<</if>>
	<<if $orgasmtrait gte 1>>
		<<set $stress -= 100>>
	<</if>>

	<<set $orgasmcurrent += 1>>
<</nobr>><</widget>>

<<widget "orgasmpassage">><<nobr>>
	<<if $femaleclimax isnot -1 and $orgasmdown lt 0>>
		<<set $femaleclimax to -1>>
	<</if>>
	<<orgasmstat>><<set $orgasmcount += 1>><<set $orgasmdown to 3>><<set $speechcum += 1>><<set $speechorgasmcount += 1>>
	<<if $penisexist is 1 and $femaleclimax is -1 and $penissize lt 0>>
		<<set _calculation to 0>>
		<<if $anusstate is "penetrated" or $anusstate is "tentacle" or $anusstate is "tentacledeep">>
			<<set _calculation += 40>>
		<</if>>
		<<if $mouthstate is "penetrated" or $mouthstate is "tentacle" or $mouthstate is "tentacledeep">>
			<<set _calculation += 20>>
		<</if>>
		<<if $penisstate is "penetrated" or $penisstate is "otheranus" or $penisstate is "tentacledeep" or $penisstate is "tentacle">>
			<<set _calculation -= 40>>
		<</if>>
		<<if random(1, 100) lte (50 + _calculation)>>
			<<set $femaleclimax to 1>>
		<<else>>
			<<set $femaleclimax to 0>>
		<</if>>
	<</if>>
	<<if $penisexist is 1 and $devstate is 1 and $femaleclimax isnot 1>>
		<<if $semen_volume is 0 or $semen_amount is 0>>
			<span class="pink">You are overcome by sensation and climax like a girl.</span>
			<<set $femaleclimax to 1>>
			<<semenvolume -1>>
		<<else>>
			<<set $penissemen += 1>>
			<<if $parasite.penis.name>>
			You are overcome by sensation. You ejaculate into the parasite latched onto your penis.
			<<elseif $penisuse is "othervagina">>
				<<if $penisstate is "penetrated">>
					<<penileejacstat>>
					<span class="pink">You are overcome by sensation and ejaculate deep into <<his>> womb.</span>
					<<purity -1>><<internalejac>><<creampie "npc" "vagina">>
				<<else>>
					<span class="pink">You are overcome by sensation and ejaculate on <<his>> pussy.</span>
				<</if>>
			<<elseif $penisuse is "otheranus">>
				<<if $penisstate is "otheranus">>
					<<penileejacstat>>
					<span class="pink">You are overcome by sensation and ejaculate deep into <<his>> bowels.</span>
					<<purity -1>><<internalejac>><<creampie "npc" "anus">>
				<<else>>
					<span class="pink">You are overcome by sensation and ejaculate on <<his>> ass.</span>
				<</if>>
			<<elseif $penisuse is "othermouth">>
				<<if $penisstate is "othermouth">>
					<<penileejacstat>>
					<span class="pink">You are overcome by sensation and ejaculate into <<his>> mouth.</span>
					<<purity -1>><<internalejac>><<creampie "npc" "mouth">>
				<<else>>
					<span class="pink">You are overcome by sensation and ejaculate on <<his>> face.</span>
				<</if>>
			<<elseif $penisuse is "tentacle">>
				<<if $penisstate isnot "tentacleentrance" and $penisstate isnot "tentacleimminent">>
					<<penileejacstat>>
					<span class="pink">You are overcome by sensation. The tentacle milks you of your semen.</span>
					<<purity -1>><<internalejac>><<creampie "npc" "tentacle">>
				<<else>>
					<span class="pink">You are overcome by sensation and ejaculate on the tentacle.</span>
				<</if>>
			<<elseif $mouth is "mpenisentrance">>
				<span class="pink">
					You are overcome by sensation. A surge of cum erupts from your penis onto your
					face<<if $rng gte 10 and $semen_amount gt ($semen_volume / 24) * 18>> and hair<<set $hairsemen += 1>><</if>>.
				</span>
				<<if $semen_amount gt ($semen_volume / 24) * 18>>
					<<set $facesemen += 1>>
				<</if>>
			<<elseif $mouth is "mpenis">>
				<span class="pink">You are overcome by sensation and ejaculate in your mouth, forcing you to quickly drink it down.</span>
				<<set $mouthsemen += 1>>
			<<else>>
				<span class="pink">You are overcome by sensation. A surge of cum erupts from your penis<<if $worn.genitals.type.includes("chastity")>> into your $worn.genitals.name<</if>>.</span>
			<</if>>
			<<if $semen_amount lte (($semen_volume / 24) * 6)>>
				<span class="pink">Exhausted, your body only manages to produce a few droplets of watery cum.</span>
				<<semenvolume -2>>
			<<elseif $semen_amount lte (($semen_volume / 24) * 12)>>
				<span class="pink">Tired from overuse, your cum is thin and watery.</span>
				<<semenvolume -1>>
			<<elseif $semen_amount lte (($semen_volume / 24) * 18)>>
				<span class="pink">The repeated orgasms are taking their toll, reducing the amount of cum your body manages to produce.</span>
				<<semenvolume -1>>
			<</if>>

		<</if>>
	<<elseif $penisexist is 1 and $penissize lt 0>>
		<span class="pink">You are overcome by sensation and climax like a girl.</span>
		<<semenvolume -1>>
	<<else>>
		<span class="pink">You are overcome by sensation and climax.</span>
	<</if>>

	<<if $arousalmasochism/$arousal gte 0.70>>
	<!-- If over 70% arousal is from pain, PC has added reaction NG v2.7 -->
		<span class="green"> Your body writhes and yearns for more pain.</span>
		<<set $masochism += 5>>
	<</if>>

	<<orgasmsemen>>/*Makes changes to semen values*/
	<<vaginaFluidOrgasm>>

	<<if $parasite.left_ear.name is "slime">>
	<span class="blue">A soothing warmth fills you.</span> You almost forget the strife of the world. You can tell it's the slime in your left ear, rewarding you for having an orgasm.
	<<gcorruption>><<ltrauma>><<lstress>><<trauma -6>><<stress -6>><<set $corruption_slime += 1>>
	<br>
	<</if>>
	<<if $parasite.right_ear.name is "slime">>
	<span class="blue">A soothing warmth fills you.</span> You almost forget the strife of the world. You can tell it's the slime in your right ear, rewarding you for having an orgasm.
	<<gcorruption>><<ltrauma>><<lstress>><<trauma -6>><<stress -6>><<set $corruption_slime += 1>>
	<br>
	<</if>>

	<<if $swarmchestgrab gte 1>>
		<span class="pink">Your convulsions launch the _swarmcreature away from your chest.</span>
		<<set $swarmchestgrab to 0>>
	<</if>>
	<<if $swarm1 is "chest">>
		<<set $swarm1 to "active">>
	<</if>>
	<<if $swarm2 is "chest">>
		<<set $swarm2 to "active">>
	<</if>>
	<<if $swarm3 is "chest">>
		<<set $swarm3 to "active">>
	<</if>>
	<<if $swarm4 is "chest">>
		<<set $swarm4 to "active">>
	<</if>>
	<<if $swarm5 is "chest">>
		<<set $swarm5 to "active">>
	<</if>>
	<<if $swarm6 is "chest">>
		<<set $swarm6 to "active">>
	<</if>>
	<<if $swarm7 is "chest">>
		<<set $swarm7 to "active">>
	<</if>>
	<<if $swarm8 is "chest">>
		<<set $swarm8 to "active">>
	<</if>>
	<<if $swarm9 is "chest">>
		<<set $swarm9 to "active">>
	<</if>>
	<<if $swarm10 is "chest">>
		<<set $swarm10 to "active">>
	<</if>>
	<<orgasm>>
	<<wetnessCalculate>>
<</nobr>><</widget>>

<<widget "orgasmstreet">><<nobr>>
	<<orgasmpassage>>
	<<if $exposed gte 1>>
		<<if $daystate isnot "night">>
			You steady yourself as your spasms subside, feeling exposed and hoping the noise hasn't given away your hiding place.
		<<else>>
			You steady yourself as your spasms subside, feeling exposed and hoping the noise hasn't attracted attention.
		<</if>>
	<<else>>
		<<if $daystate isnot "night">>
			The sight and sound of a <<girl>> convulsing in climax draws attention, and as you regain control you find yourself stared at from all directions. Face red, you flee the scene.
			<<gtrauma>><<gstress>><<trauma 6>><<stress 6>><<fameexhibitionism 10>>
		<<else>>
			You steady yourself as your spasms subside, and hope the noise hasn't attracted attention.
		<</if>>
	<</if>>
	<br><br>
<</nobr>><</widget>>

<<widget "orgasmforest">><<nobr>>
	<<orgasmpassage>>
	<<if $exposed gte 1>>
		<<if $daystate isnot "night">>
			You steady yourself against a tree as your spasms subside.
		<<else>>
			You steady yourself against a tree as your spasms subside.
		<</if>>
	<<else>>
		<<if $daystate isnot "night">>
			You steady yourself against a tree as your spasms subside.
		<<else>>
			You steady yourself against a tree as your spasms subside.
		<</if>>
	<</if>>
	<br><br>
<</nobr>><</widget>>

<<widget "orgasmbeach">><<nobr>>
	<<orgasmpassage>>
	<<if $exposed gte 1>>
		<<if $daystate isnot "night">>
			You steady yourself as your spasms subside, feeling exposed and hoping the noise hasn't given away your hiding place.
		<<else>>
			You steady yourself as your spasms subside, feeling exposed on the open beach.
		<</if>>
	<<else>>
		<<if $daystate isnot "night">>
			The sight and sound of a <<girl>> convulsing in climax draws attention, and as you regain control you find yourself stared at from all across the beach. Face red, you flee the scene.
			<<gtrauma>><<gstress>><<trauma 6>><<stress 6>><<fameexhibitionism 10>>
		<<else>>
			You steady yourself as your spasms subside, feeling exposed on the open beach.
		<</if>>
	<</if>>
	<br><br>
<</nobr>><</widget>>

<<widget "breastfeed">><<nobr>>
<<set _milk_temp to random(1, 5)>>
<<if $cow gte 6>>
	<<set _milk_temp *= 2>>
<</if>>
<<if $milk_amount gte _milk_temp>>
<<set $milk_produced_stat += _milk_temp>>
<<else>>
<<set $milk_produced_stat += $milk_amount>>
<</if>>
<<milkvolume 1>>
<<if $masturbation_bowl is 1>>
	<<if $milk_amount gte _milk_temp>>
	<<set $masturbation_milk += _milk_temp>>
	<<else>>
	<<set $masturbation_milk += $milk_amount>>
	<</if>>
<</if>>

<<set $milk_amount -= _milk_temp>>

<</nobr>><</widget>>

<<widget "orgasmhour">><<nobr>>
	<<if $purity gte 990>>
		<<set $orgasmcount -= 1>>
	<<elseif $purity gte 900>>
		<<set $orgasmcount -= 2>>
	<<elseif $purity gte 800>>
		<<set $orgasmcount -= 3>>
	<<elseif $purity gte 700>>
		<<set $orgasmcount -= 4>>
	<<elseif $purity gte 600>>
		<<set $orgasmcount -= 5>>
	<<elseif $purity gte 500>>
		<<set $orgasmcount -= 6>>
	<<elseif $purity gte 400>>
		<<set $orgasmcount -= 7>>
	<<elseif $purity gte 300>>
		<<set $orgasmcount -= 8>>
	<<elseif $purity gte 200>>
		<<set $orgasmcount -= 9>>
	<<elseif $purity gte 100>>
		<<set $orgasmcount -= 10>>
	<<else>>
		<<set $orgasmcount -= 11>>
	<</if>>
	<<if $cow gte 6>>
		<<semenvolume 1>>
		<<milkvolume 1>>
	<</if>>
	<<if $penisexist is 1>>
		<<if $arousal gte 8000>>
			<<set $semen_amount += Math.floor(($semen_volume / 24) * 3)>>
			<<if $cow gte 6>>
				<<set $semen_amount += Math.floor(($semen_volume / 24) * 3)>>
			<</if>>
			<<if $semen_amount gt $semen_volume>>
				<<semenvolume 2>>
				<<set $semen_amount to $semen_volume>>
			<</if>>
		<<elseif $arousal gte 6000>>
			<<set $semen_amount += Math.floor(($semen_volume / 24) * 2)>>
			<<if $cow gte 6>>
				<<set $semen_amount += Math.floor(($semen_volume / 24) * 2)>>
			<</if>>
			<<if $semen_amount gt $semen_volume>>
				<<semenvolume 1>>
				<<set $semen_amount to $semen_volume>>
			<</if>>
		<<else>>
			<<set $semen_amount += Math.floor(($semen_volume / 24))>>
			<<if $cow gte 6>>
				<<set $semen_amount += Math.floor(($semen_volume / 24))>>
			<</if>>
		<</if>>
		<<if $drugged gte 1>>
			<<set $semen_amount += Math.floor(($semen_volume / 24))>>
			<<if $semen_amount gt $semen_volume>>
				<<semenvolume 1>>
				<<set $semen_amount to $semen_volume>>
			<</if>>
		<</if>>
	<</if>>
	<<set $milk_amount += Math.floor(($milk_volume / 24))>>
<</nobr>><</widget>>

<<widget "orgasmsemen">><<nobr>>
	<<set _temp_semen to 30>>
	<<set _temp_semen += parseFloat(($semen_volume / 30).toFixed(1))>>
	<<if $femaleclimax is 1>>
		<<set _temp_semen = parseFloat((_temp_semen / 30).toFixed(1))>>
	<</if>>
	<<if $orgasmtrait gte 1>>
		<<set _temp_semen to Math.trunc(_temp_semen * 2.5)>>
	<</if>>
	<<if $cow gte 6>>
		<<set _temp_semen *= 2>>
	<</if>>
	<<if $masturbation_bowl is 1 and $semen_amount gte 1 and $worn.under_lower.vagina_exposed is 1 and $worn.lower.vagina_exposed is 1 and $mouth isnot "mpenis">>
		<<if $semen_amount gte _temp_semen>>
			<<set $masturbation_semen += _temp_semen>>
		<<else>>
			<<set $masturbation_semen += $semen_amount>>
		<</if>>
	<span class="gold">You've gathered <<print ($masturbation_semen).toFixed(1)>> ml of <<semenstop>></span>
	<</if>>
	<<if $semen_amount gte _temp_semen>>
		<<set $semen_produced_stat += _temp_semen>>
		<<set $semen_amount -= _temp_semen>>
	<<else>>
		<<set $semen_produced_stat += $semen_amount>>
		<<set $semen_amount to 0>>
	<</if>>
	<<if $femaleclimax isnot 1>>
		<<semenvolume 1>>
	<</if>>
<</nobr>><</widget>>

<<widget "wetnessCalculate">><<nobr>>
<<set _totalArousal = 0>>
<<set _length to $trackedArousal.length>>
<<for _ia to 0; _ia lt _length; _ia++>>
	<<set _totalArousal += $trackedArousal[_ia] / ((_length - _ia) * 2)>>
<</for>>
<<if $combat is 1>>
	<<if $enemytype is "man">>
		<<set $combatWetBoost to Math.floor($promiscuity /20)>>
	<</if>>
	<<if $enemytype is "tentacles" or $enemytype is "beast">>
		<<set $combatWetBoost to Math.floor($deviancy /20)>>
	<</if>>
<<else>>
	<<set $combatWetBoost to 0>>
<</if>>

<<set _exponential to Math.pow(0.99996,_totalArousal)>>
<<if $vaginaexist is 1>>
	<<set $vaginaWetness to Math.clamp((75 - Math.floor(_exponential * 75)) + ($vaginagoo * 6) + ($vaginasemen * 6) + ($vaginaoutsidegoo * 6) + ($vaginaoutsidesemen * 6) + $combatWetBoost, 0, 120)>>
<</if>>
<<if $penisexist is 1>>
	<<set $penisWetness to Math.clamp(($penisgoo * 12) + ($penissemen * 12), 0, 120)>>
<</if>>
<<set $anusWetness to Math.clamp(($anusgoo * 6) + ($anussemen * 6) + ($bottomgoo * 6) + ($bottomsemen * 6), 0, 120)>>
<<if $combat is 1>>
	<<combatWetnessCalculate>>
<</if>>
<</nobr>><</widget>>

<<widget "combatWetnessCalculate">><<nobr>>
<<set $vaginalPain to 0>>
<<set $analPain to 0>>
<<set $penisPain to 0>>
<<if $demon lt 6 and $gamemode isnot "soft">>
	<<if $gamemode is "hard">>
		<<set _diff to 2>>
	<<else>>
		<<set _diff to 1>>
	<</if>>
	<<if $vaginaexist is 1>>
		<<if $consensual is 1>>
			<<set _base to Math.floor(3 * Math.pow(0.4,$vaginaWetness/8))>>
		<<else>>
			<<set _base to Math.floor(6 * Math.pow(0.5,$vaginaWetness/25))>>
		<</if>>
		<<set $vaginalPain to _base * _diff>>
	<</if>>
	<<if $penisexist is 1>>
		<<if $consensual is 1>>
			<<set _base to Math.floor(3 * Math.pow(0.4,$penisWetness/8))>>
		<<else>>
			<<set _base to Math.floor(6 * Math.pow(0.5,$penisWetness/25))>>
		<</if>>
		<<set $penisPain to _base * _diff>>
	<</if>>
	<<if $consensual is 1>>
		<<set _base to Math.floor(3 * Math.pow(0.4,$anusWetness/8))>>
	<<else>>
		<<set _base to Math.floor(6 * Math.pow(0.5,$anusWetness/25))>>
	<</if>>
	<<set $analPain to _base * _diff>>
<</if>>
<</nobr>><</widget>>

<<widget "vaginaFluidPassive">><<nobr>>
	<<if $vaginaexist is 1 and $masturbation_bowl is 1>>
		<<set $masturbation_vaginaFluid += Math.floor(Math.clamp($vaginaWetness - 60 - random(10,40), 0, 40)/4)>>
	<</if>>
<</nobr>><</widget>>

<<widget "vaginaFluidActive">><<nobr>>
	<<if $vaginaexist is 1 and $masturbation_bowl is 1>>
		<<set $masturbation_vaginaFluid += Math.floor(Math.clamp($vaginaWetness - 60 - random(0,30), 0, 40)/4)>>
	<</if>>
<</nobr>><</widget>>

<<widget "vaginaFluidOrgasm">><<nobr>>
<<if $vaginaexist is 1 and $masturbation_bowl is 1 and $worn.under_lower.vagina_exposed is 1 and $worn.lower.vagina_exposed is 1>>
	<<set $masturbation_vaginaFluid += Math.floor(Math.clamp($vaginaWetness, 0, 40)/2)>>
<</if>>
<</nobr>><</widget>>