<<if $molestationstart is 1>>
	<<set $molestationstart to 0>>
	<<controlloss>>
	<<violence 1>>
	<<neutral 1>>
	<<molested>>
	<<maninit>>
	<<set $enemyanger += 100>><<set $enemytrust -= 50>>
	<<if $phase is 1>>
		<<set $enemyhealth -= 50>>
	<<elseif $phase is 2>>
		<<set $enemyhealth -= 100>>
	<</if>>
<</if>>
<<effects>>
<<effectsman>><<man>>
<<stateman>>
<br><br>
<<actionsman>>
<<if $enemyhealth lte 0>>
	<span id="next"><<link [[Next|Sold Rape Finish]]>><</link>></span><<nexttext>>
<<elseif $enemyarousal gte $enemyarousalmax>>
	<span id="next"><<link [[Next|Sold Rape Finish]]>><</link>></span><<nexttext>>
<<else>>
	<span id="next"><<link [[Next|Sold Rape]]>><</link>></span><<nexttext>>
<</if>>