<<widget "home_outside">><<nobr>>

<<if $exposed gte 2>>
	<<if $daystate is "night">>
		<<if $exhibitionism gte 55>>
			<<link [[Sneak outside (0:02)|Home Leave Naked]]>><</link>><<if $ex_fence isnot 1>><<exhibitionist4>><</if>>
		<</if>>
	<<else>>
		<<if $exhibitionism gte 75>>
			<<link [[Sneak outside (0:05)|Home Leave Naked Day]]>><</link>><<if $ex_fence isnot 1>><<exhibitionist5>><</if>>
		<</if>>
	<</if>>
<<elseif $exposed gte 1>>
	<<if $daystate is "night">>
		<<if $exhibitionism gte 15>>
			<<link [[Sneak outside (0:02)|Home Leave Undies]]>><</link>><<if $ex_fence isnot 1>><<exhibitionist2>><</if>>
		<</if>>
	<<else>>
		<<if $exhibitionism gte 35>>
			<<link [[Sneak outside (0:05)|Home Leave Undies Day]]>><</link>><<if $ex_fence isnot 1>><<exhibitionist3>><</if>>
		<</if>>
	<</if>>
<<else>>
	<<link [[Leave orphanage (0:01)|Domus Street]]>><<pass 1>><</link>>
	<br>
<</if>>

<</nobr>><</widget>>

<<widget "home_effects">><<nobr>>
<<if $home_gone lte 167>>
	<<set $home_gone to 0>>
<</if>>
<</nobr>><</widget>>