<<widget "init_over_lower">><<nobr>>
<<set setup.clothes.over_lower to [
	{index: 0,
	name: "naked",
	name_cap: "Naked",
	variable: "naked",
	integrity: 0,
	integrity_max: 0,
	fabric_strength: 0,
	reveal: 1000,
	word: "n",
	skirt: 0,
	skirt_down: 0,
	state: 0,
	state_base: 0,
	plural: 0,
	colour: 0,
	colour_options: [],
	exposed: 2,
	exposed_base: 2,
	vagina_exposed: 1,
	vagina_exposed_base: 1,
	anus_exposed: 1,
	anus_exposed_base: 1,
	type: ["naked"],
	gender: "n",
	cost: 0,
	description: "naked",
	shop: [],
	accessory: 0,
	accessory_colour: 0,
	accessory_colour_options: [],
	high_img: 0,
	back_img: 0,
	cursed: 0,
	location: 0,
	iconFile: 0,
	accIcon: 0,
	mainImage:0
},

	{index: 1,
	name: "froggy skirt",
	name_cap: "Froggy skirt",
	variable: "froggy",
	integrity: 300,
	integrity_max: 300,
	fabric_strength: 30,
	reveal: 100,
	word: "a",
	one_piece: 1,
	skirt: 1,
	skirt_down: 1,
	zip: 1,
	state: "waist",
	state_base: "waist",
	plural: 0,
	colour: 0,
	colour_options: [],
	exposed: 0,
	exposed_base: 0,
	vagina_exposed: 0,
	vagina_exposed_base: 0,
	anus_exposed: 0,
	anus_exposed_base: 0,
	type: ["rainproof"],
	set: "froggy",
	gender: "n",
	femininity: 0,
	cost: 0,
	description: "Protects you from rain.",
	shop: ["clothing"],
	accessory: 0,
	accessory_colour: 0,
	accessory_colour_options: [],
	high_img: 0,
	back_img: 0,
	cursed: 0,
	location: 0,
	iconFile: 0,
	accIcon: 0,
	outfitSecondary: ["over_upper","froggy coat"]
},

	{index: 2,
	name: "cream",
	name_cap: "Cream",
	variable: "cream",
	integrity: 100,
	integrity_max: 100,
	fabric_strength: 30,
	reveal: 1000,
	word: "n",
	one_piece: 0,
	skirt: 0,
	skirt_down: 0,
	zip: 0,
	state: "waist",
	state_base: "waist",
	plural: 0,
	colour: 0,
	colour_options: [],
	exposed: 0,
	exposed_base: 0,
	vagina_exposed: 1,
	vagina_exposed_base: 1,
	anus_exposed: 1,
	anus_exposed_base: 1,
	type: ["naked"],
	set: "over_lower",
	gender: "n",
	femininity: 0,
	cost: 10000,
	description: "It won't last long.",
	shop: [],
	accessory: 0,
	accessory_colour: 0,
	accessory_colour_options: [],
	high_img: 0,
	back_img: 0,
	cursed: 0,
	location: 0,
	iconFile: 0,
	accIcon: 0
}

]>>
<</nobr>><</widget>>