<<set $outside to 0>><<set $location to "hospital">><<effects>>
The nurse looks at the item you're holding,
<<switch $pharmacyItem>>
	<<case "penis reduction">>"That'll be £150. So is it too big, or do you just want it to be tiny?"
	<br><br>
	<<if $money gte 15000>>
	<<link [[Hand over the money|Pharmacy]]>><<set $money -= 15000>><<managePill "penis" "reduction" 14 false>><<boughtOnce>><</link>>
	<<else>>
	<span class="purple">You cannot afford them.</span>
	<</if>>

	<<case "penis growth">>"That'll be £150. So you think yours is too small?"
	<br><br>
	<<if $money gte 15000>>
	<<link [[Hand over the money|Pharmacy]]>><<set $money -= 15000>><<managePill "penis" "growth" 14 false>><<boughtOnce>><</link>>
	<<else>>
	<span class="purple">You cannot afford them.</span>
	<</if>>

	<<case "penis growth blocker">>"£200.00 please. I wonder how big you are."
	<br><br>
	<<if $money gte 20000>>
	<<link [[Hand over the money|Pharmacy]]>><<set $money -= 20000>><<managePill "penis" "blocker" 14 false>><<boughtOnce>><</link>>
	<<else>>
	<span class="purple">You cannot afford them.</span>
	<</if>>

	<<case "breast reduction">>"£150.00 please. The effects will vary."
	<br><br>
	<<if $money gte 15000>>
	<<link [[Hand over the money|Pharmacy]]>><<set $money -= 15000>><<managePill "breast" "reduction" 14 false>><<boughtOnce>><</link>>
	<<else>>
	<span class="purple">You cannot afford them.</span>
	<</if>>

	<<case "breast growth">>"£150.00 please. The effects will vary."
	<br><br>
	<<if $money gte 15000>>
	<<link [[Hand over the money|Pharmacy]]>><<set $money -= 15000>><<managePill "breast" "growth" 14 false>><<boughtOnce>><</link>>
	<<else>>
	<span class="purple">You cannot afford them.</span>
	<</if>>

	<<case "breast growth blocker">>"£200.00 please."
	<br><br>
	<<if $money gte 20000>>
	<<link [[Hand over the money|Pharmacy]]>><<set $money -= 20000>><<managePill "breast" "blocker" 14 false>><<boughtOnce>><</link>>
	<<else>>
	<span class="purple">You cannot afford them.</span>
	<</if>>

<</switch>>

<br>
<<link [[Don't buy|Pharmacy]]>><</link>>