<<set $outside to 1>><<set $location to "landfill">><<effects>>

<<if $stress gte 10000>>

<<passouttrash>>

<<else>>

The maggots crawl away from you. <<tearful>> you escape the pit.
<br><br>

<<endcombat>>
<<clotheson>>

<<link [[Next|Trash]]>><<set $eventskip to 1>><</link>>
<br>

<</if>>