You remain unconscious for a time.
<br><br>

<<pass 1 hour>>

<<set $danger to random(1, 10000)>>

<<if $danger gte (9900 - $allure)>>
	<<if $schoolday is 1 and $schoolstate isnot "early" and $schoolstate isnot "late">>
		<<if $rng gte 81>>
		<<link [[Next|School Passout Exhibit]]>><<upperruined>><<lowerruined>><<underruined>><</link>>
		<<elseif $rng gte 1>>
		<<link [[Next|School Passout Rape]]>><<set $molestationstart to 1>><</link>>
		<</if>>
	<<else>>
		<<if $rng gte 51>>
		<<link [[Next|School Passout Gang Rape]]>><<set $molestationstart to 1>><</link>>
		<<elseif $rng gte 1>>
		<<link [[Next|School Passout Gang Rape]]>><<set $molestationstart to 1>><</link>>
		<</if>>
	<</if>>
<<else>>
<<ambulance>>
<</if>>

<<set $trauma +=10>><<set $stress -= 2000>>