<<widget "seacliffs">><<nobr>>

<<link [[Swim to the cliffs (0:10)|Sea Cliffs]]>><<pass 10>><<tiredness 2>><</link>><<gtiredness>>

<</nobr>><</widget>>

<<widget "seacliffsquick">><<nobr>>

<<link [[Swim to the cliffs|Sea Cliffs]]>><</link>>

<</nobr>><</widget>>

<<widget "seacliffseventend">><<nobr>>

<<link [[Next|Sea Cliffs]]>><<set $eventskip to 1>><</link>>

<</nobr>><</widget>>