<<widget "tryOnInit">><<nobr>>
<<set $tryOn to {
	"autoReset":true,
	"value":0,
	"showEquip": {"over_head": null, "over_upper": null, "over_lower": null},
	"showUnderEquip": {"upper": null, "lower": null},
}>>
<</nobr>><</widget>>

<<widget "tryOnReset">><<nobr>>
<<set $tryOn to {
	"autoReset":false,
	"value":0,
	"ownedStored":{
		"face":clone($worn.face),
		"feet":clone($worn.feet),
		"over_head":clone($worn.over_head),
		"head":clone($worn.head),
		"legs":clone($worn.legs),
		"lower":clone($worn.lower),
		"over_lower":clone($worn.over_lower),
		"neck":clone($worn.neck),
		"under_lower":clone($worn.under_lower),
		"under_upper":clone($worn.under_upper),
		"upper":clone($worn.upper),
		"over_upper":clone($worn.over_upper),
	},
	"tryingOn":{
		"face":null,
		"feet":null,
		"head":null,
		"over_head":null,
		"legs":null,
		"lower":null,
		"over_lower":null,
		"neck":null,
		"under_lower":null,
		"under_upper":null,
		"upper":null,
		"over_upper":null,
	},
	"type": {},
	"showEquip": {"over_head": null, "over_upper":null, "over_lower": null},
	"showUnderEquip": {"upper": null, "lower": null}
}>>
<</nobr>><</widget>>

<<widget "tryOnStats">><<nobr>>
<<if $debug is 1>>
	<<if $tryOn.showEquip.over_head is null and $tryOn.showEquip.over_upper is null and $tryOn.showEquip.over_lower is null
	and $worn.over_head.name isnot "naked" and $worn.over_upper.name isnot "naked" and $worn.over_lower.name isnot "naked">>
		<<link [[Show Normal Clothes|$passage]]>><<ShowUnderEquip "over" "hide">><</link>>
		<br>
	<<elseif $tryOn.showEquip.over_head isnot null or $tryOn.showEquip.over_upper isnot null or $tryOn.showEquip.over_lower isnot null>>
		<<link [[Re-equip Over Clothes|$passage]]>><<ShowUnderEquip "over">><</link>>
		<br>
	<</if>>
<</if>>
<<if $tryOn.showUnderEquip.upper is null and $tryOn.showUnderEquip.lower is null>>
	<<link [[Show Under Clothes|$passage]]>><<ShowUnderEquip "normal" "hide">><</link>>
	<br><br>
<<elseif $tryOn.showUnderEquip.upper isnot null and $tryOn.showUnderEquip.lower isnot null>>
	<<link [[Re-equip Upper Clothes|$passage]]>><<ShowUnderEquip "normal">><</link>>
	<br><br>
<</if>>
<<if $tryOn.value gt 0>>
	Clothes you are trying on total to £<<print $tryOn.value / 100>>. This includes:
	<br>
	<<if $passage is "Clothing Shop">>
		<<set _equip to ["over_upper","over_lower","upper", "lower", "under_upper", "under_lower","over_head","head", "face", "neck", "legs", "feet"]>>
		<ul>
		<<for _i to 0; _i lt _equip.length; _i++>>
			<<if $tryOn.tryingOn[_equip[_i]] is null>>
				<<continue>>
			<</if>>
			<<if $tryOn.tryingOn[_equip[_i]].outfitSecondary is undefined>>
				<li>
					<<set _color to $tryOn.tryingOn[_equip[_i]].colour>>
					<<if _color isnot 0>>
						<<print '<span class="' + $tryOn.tryingOn[_equip[_i]].colour + '">(_color)</span>'>>
					<</if>>
					<<print $tryOn.tryingOn[_equip[_i]].name_cap>> with a price tag of £<<print $tryOn.tryingOn[_equip[_i]].cost / 100>>
					<<capture _i>>
						| <<link [[Remove|$passage]]>><<clothingReset _equip[_i]>><</link>>
					<</capture>>
				</li>
			<</if>>
		<</for>>
		</ul>
	<</if>>
<</if>>

<</nobr>><</widget>>

<<widget "buyTryOnClothes">><<nobr>>
<<if $args[0]>>
	<<ShowUnderEquip "normal">>
	<<ShowUnderEquip "over">>
	<<set _equip to ["over_upper","over_lower","upper", "lower", "under_upper", "under_lower","over_head","head", "face", "neck", "legs", "feet"]>>
	<<set _itemTypes to ["face","feet","head","legs","upper","lower","neck","under_upper","under_lower"]>>
	<<set $money -= $tryOn.value>>
	<<switch $args[0]>>
		<<case "wear">>
			<<for _i to 0; _i lt _equip.length; _i++>>
				<<if $tryOn.ownedStored[_equip[_i]] isnot null>>
					<<continue>>
				<</if>>
				/*Send previously equipped clothes to wardrobe*/
				<<if $tryOn.ownedStored[_equip[_i]].name isnot $worn[_equip[_i]].name>>
					<<wardrobeSend _equip[_i] $tryOn.ownedStored[_equip[_i]]>>
				<</if>>
			<</for>>
		<<case "wardrobe">>
			<<for _i to 0; _i lt _equip.length; _i++>>
				<<if $tryOn.tryingOn[_equip[_i]] isnot null>>
					<<if $tryOn.tryingOn[_equip[_i]].name is $worn[_equip[_i]].name>>
						<<wardrobeSend _equip[_i] $tryOn.tryingOn[_equip[_i]]>>
					<</if>>
				<</if>>
			<</for>>
			<<clothingReset>>
	<</switch>>
	<<set $tryOn.autoReset to true>>
<</if>>
<</nobr>><</widget>>

<<widget "clothingReset">><<nobr>>
<<if $args[0]>>
	<<if $tryOn.ownedStored[$args[0]] isnot null>>
		<<unset _outfitPrimaryCR>>
		<<set _outfitPrimaryCR to $worn[$args[0]].outfitPrimary>>
		<<if _outfitPrimaryCR isnot undefined>>
			<<for _labelCR, _valueCR range _outfitPrimaryCR>>
				<<if $worn[_labelCR].name is _valueCR>>
					<<clothingResetOwnedReset _labelCR>>
				<</if>>
			<</for>>
		<</if>>
		<<clothingResetOwnedReset $args[0]>>
	<</if>>
<<else>>
	<<set _equip to ["over_upper","over_lower","upper", "lower", "under_upper", "under_lower","over_head","head", "face", "neck", "legs", "feet"]>>
	<<for _i to 0; _i lt _equip.length; _i++>>
		<<if $tryOn.ownedStored[_equip[_i]] isnot null>>
			<<set $worn[_equip[_i]] to clone($tryOn.ownedStored[_equip[_i]])>>
		<</if>>
	<</for>>
	<<set $tryOn.autoReset to true>>
<</if>>
<</nobr>><</widget>>

<<widget "clothingResetOwnedReset">><<nobr>>
<<if $tryOn.ownedStored[$args[0]]>>
	<<set $_.outfitSecondary to $tryOn.ownedStored[$args[0]].outfitSecondary>>
	<<set $_.slot to false>>
	<<if $_.outfitSecondary isnot undefined>>
		<<if $_.outfitSecondary[1] is $tryOn.ownedStored[$_.outfitSecondary[0]].name>>
			<<set $_.slot to $_.outfitSecondary[0]>>
		<</if>>
	<</if>>
	<<if $_.slot is false>>
		<<set $_.slot to $args[0]>>
	<</if>>
	<<set $_.outfitPrimary to $tryOn.ownedStored[$_.slot].outfitPrimary>>
	<<if $_.outfitPrimary isnot undefined>>
		<<for _labelOCR, _valueOCR range $_.outfitPrimary>>
			<<if $tryOn.ownedStored[_labelOCR].name is _valueOCR>>
				<<set $worn[_labelOCR] to clone($tryOn.ownedStored[_labelOCR])>>
				<<removeTryingOn _labelOCR>>
			<</if>>
		<</for>>
	<</if>>

	<<set $worn[$_.slot] to clone($tryOn.ownedStored[$_.slot])>>
	<<removeTryingOn $_.slot>>
<</if>>
<</nobr>><</widget>>

<<widget "tryOnWear">><<nobr>>
<<if $args[0] and $args[1]>>
	<<set _items to {}>>

	/*Finds the main piece of clothing and sets it colors*/
	<<set _items[$args[0]] to clone(setup.clothes[$args[0]][$args[1]])>>
	<<if $colouraction2 isnot undefined and _items[$args[0]].colour_options.includes($colouraction2)>>
		<<set _items[$args[0]].colour to $colouraction2>>
		<<if _items[$args[0]].colour is "custom">>
			<<set _items[$args[0]].colourCustom to customColor($customColors.color.primary, $customColors.saturation.primary, $customColors.brightness.primary, $customColors.contrast.primary, $customColors.sepia.primary)>>
		<</if>>
	<</if>>
	<<if $accessorycolouraction2 isnot undefined and _items[$args[0]].accessory_colour_options.includes($accessorycolouraction2)>>
		<<set _items[$args[0]].accessory_colour to $accessorycolouraction2>>
		<<if _items[$args[0]].accessory_colour is "custom">>
			<<set _items[$args[0]].accessory_colourCustom to customColor($customColors.color.secondary, $customColors.saturation.secondary, $customColors.brightness.secondary, $customColors.contrast.secondary, $customColors.sepia.secondary)>>
		<</if>>
	<</if>>

	/*Finds the secondary pieces of clothing and sets their colors*/
	<<unset _outfitPrimaryTO>>
	<<set _outfitPrimaryTO to _items[$args[0]].outfitPrimary>>
	<<if _outfitPrimaryTO isnot undefined>>
		<<for _labelTO, _valueTO range _outfitPrimaryTO>>
			<<for _i to 0; _i lt setup.clothes[_labelTO].length; _i++>>
				<<if setup.clothes[_labelTO][_i].name is _valueTO>>
					<<set _items[_labelTO] to setup.clothes[_labelTO][_i]>>
					<<if $colouraction2 isnot undefined and _items[_labelTO].colour_options.includes($colouraction2)>>
						<<set _items[_labelTO].colour to $colouraction2>>
						<<if _items[_labelTO].colour is "custom">>
							<<set _items[_labelTO].colourCustom to customColor($customColors.color.primary, $customColors.saturation.primary, $customColors.brightness.primary, $customColors.contrast.primary, $customColors.sepia.primary)>>
						<</if>>
					<</if>>
					<<if $accessorycolouraction2 isnot undefined and _items[_labelTO].accessory_colour_options.includes($accessorycolouraction2)>>
						<<set _items[_labelTO].accessory_colour to $accessorycolouraction2>>
						<<if _items[_labelTO].accessory_colour is "custom">>
							<<set _items[_labelTO].accessory_colourCustom to customColor($customColors.color.secondary, $customColors.saturation.secondary, $customColors.brightness.secondary, $customColors.contrast.secondary, $customColors.sepia.secondary)>>
						<</if>>
					<</if>>
					<<break>>
				<</if>>
			<</for>>
		<</for>>
	<</if>>

	/*Unequips the required slots*/
	<<for _labelTO, _valueTO range _items>>
		<<if $worn[_labelTO].name is "naked">>
			<<continue>>
		<</if>>
		<<if $worn[_labelTO].outfitSecondary isnot undefined>>
			<<if $worn[_labelTO].outfitSecondary[1] isnot "broken">>
				<<set _unequipSlot to $worn[_labelTO].outfitSecondary[0]>>
			<</if>>
		<</if>>
		<<if _unequipSlot is undefined>>
			<<set _unequipSlot to _labelTO>>
		<</if>>

		<<unset _outfitPrimaryTO>>
		<<set _outfitPrimaryTO to $worn[$args[0]].outfitPrimary>>
		<<if _outfitPrimaryTO isnot undefined>>
			<<for _labelTO2, _valueTO2 range _outfitPrimaryTO>>
				<<set $worn[_labelTO2] to clone(setup.clothes[_labelTO2][0])>>
				<<removeTryingOn _labelTO2>>
			<</for>>
		<</if>>
		<<set $worn[_unequipSlot] to clone(setup.clothes[_unequipSlot][0])>>
		<<removeTryingOn _unequipSlot>>
	<</for>>

	/*Equip items*/
	<<for _labelTO, _valueTO range _items>>
		<<set $worn[_labelTO] to clone(_valueTO)>>
		<<set $tryOn.tryingOn[_labelTO] to clone(_valueTO)>>
		<<set $tryOn.value += $tryOn.tryingOn[_labelTO].cost>>
	<</for>>
<</if>>
<</nobr>><</widget>>

<<widget "updateOwned">><<nobr>>
<<if $args[0]>>
	<<if $worn[$args[0]].outfitSecondary is undefined>>
		<<unset _outfitPrimaryUO>>
		<<set _outfitPrimaryUO to $worn[$args[0]].outfitPrimary>>
		<<if _outfitPrimaryUO isnot undefined>>
			<<for _labelUO, _valueUO range _outfitPrimaryUO>>
				<<if $worn[_labelUO].name is _valueUO>>
					<<set $tryOn.ownedStored[_labelUO] to clone($worn[_labelUO])>>
				<</if>>
			<</for>>
		<</if>>
		<<set $tryOn.ownedStored[$args[0]] to clone($worn[$args[0]])>>
	<</if>>
<</if>>
<</nobr>><</widget>>

<<widget "removeTryingOn">><<nobr>>
<<if $tryOn.tryingOn[$args[0]] isnot null>>
	<<set $tryOn.value -= $tryOn.tryingOn[$args[0]].cost>>
	<<set $tryOn.tryingOn[$args[0]] to null>>
<</if>>
<</nobr>><</widget>>

<<widget "wardrobeSend">><<nobr>>
<<if $args[0] and $args[1]>>
	<<if $args[1].name isnot "naked">>
		<<set $wardrobe[$args[0]].push(clone($args[1]))>>
	<</if>>
<</if>>
<</nobr>><</widget>>

<<widget "ShowUnderEquip">><<nobr>>
<<if $args[0] is "over">>
	<<set _slots to ["over_head", "over_upper", "over_lower"]>>
	<<set _type to "showEquip">>
<<else>>
	<<set _slots to ["upper", "lower"]>>
	<<set _type to "showUnderEquip">>
<</if>>

<<if _slots>>
	<<for _i to 0; _i lt _slots.length; _i++>>
		<<if $args[1] is "hide" and $worn[_slots[_i]].cursed isnot 1 and $tryOn[_type][_slots[_i]] is null>>
			<<unset _preventHide>><<unset _outfitPrimarySUE>>
			<<set _outfitPrimarySUE to $worn[_slots[_i]].outfitPrimary>>
			<<if _outfitPrimary isnot undefined>>
				<<for _labelSUE, _valueSUE range _outfitPrimarySUE>>
					<<if $worn[_labelSUE].cursed is 1 or $tryOn[_type][_slots[_i]] isnot null and _valueSUE is $worn[_labelSUE].name>>
						<<set _preventHide to true>>
					<</if>>
				<</for>>
			<</if>>
			<<if _preventHide isnot true>>
				<<if _outfitPrimary isnot undefined>>
					<<for _labelSUE, _valueSUE range _outfitPrimarySUE>>
						<<if _valueSUE is $worn[_labelSUE].name>>
							<<set $tryOn[_type][_labelSUE] to clone($worn[_labelSUE])>>
							<<set $worn[_labelSUE] to clone(setup.clothes[_labelSUE][0])>>
						<</if>>
					<</for>>
				<</if>>
				<<set $tryOn[_type][_slots[_i]] to clone($worn[_slots[_i]])>>
				<<set $worn[_slots[_i]] to clone(setup.clothes[_slots[_i]][0])>>
				<<if $args[0] is "normal">>
					<<set $dontHide to true>>
				<</if>>
			<</if>>
		<<elseif $args[1] is undefined>>
			<<if $tryOn[_type][_slots[_i]] is null>>
				<<continue>>
			<</if>>
			<<unset _outfitPrimarySUE>>
			<<set _outfitPrimarySUE to $tryOn[_type][_slots[_i]].outfitPrimary>>
			<<if _outfitPrimary isnot undefined>>
				<<for _labelSUE, _valueSUE range _outfitPrimarySUE>>
					<<if _valueSUE is $tryOn[_type][_labelSUE].name>>
						<<set $worn[_labelSUE] to clone($tryOn[_type][_labelSUE])>>
						<<set $tryOn[_type][_labelSUE] to null>>
					<</if>>
				<</for>>
			<</if>>
			<<set $worn[_slots[_i]] to clone($tryOn[_type][_slots[_i]])>>
			<<set $tryOn[_type][_slots[_i]] to null>>
			<<if $args[0] is "normal">>
				<<set $dontHide to false>>
			<</if>>
		<</if>>
	<</for>>
<</if>>
<</nobr>><</widget>>