<<if $molestationstart is 1>>
	<<set $molestationstart to 0>>
	<<controlloss>>
	<<violence 1>>
	<<molested>>
	<<set $enemyno to 1>>
	<<maninit>><<set $enemyanger += 50>><<set $enemytrust -= 50>>
	<br><br>
	"Oh yes, I know exactly what I'm going to do with you!" the <<person1>><<person>> smirks.

	<<if $daystate isnot "night">>
		<<set $rescue to 1>>
		<i>Attacking you during daylight hours is brash. If you'd scream, someone might help.</i>
		<br><br>
	<</if>>
<</if>>

<<effects>>
<<effectsman>><<man>>
<<stateman>>
<br><br>
<<actionsman>>

<<if $alarm is 1 and $rescue is 1>>
	<span id="next"><<link [[Next|Street Fame Flaunt Alarm]]>><</link>></span><<nexttext>>
<<else>>
	<<if $alarm is 1 and $rescue is 0>>
		No one comes to your aid.
		<<set $alarm to 0>>
		<<if $drugged gte 1>>Intoxicated as you are, you couldn't cry very convincingly.<</if>>
		<br><br>
	<</if>>

	<<if $enemyarousal gte $enemyarousalmax>>
		<span id="next"><<link [[Next->Street Fame Flaunt Ejac]]>><</link>></span><<nexttext>>
	<<elseif $enemyhealth lte 0>>
		<span id="next"><<link [[Next->Street Fame Flaunt Escape]]>><</link>></span><<nexttext>>
	<<else>>
		<span id="next"><<link [[Next->Street Fame Flaunt Rape]]>><</link>></span><<nexttext>>
	<</if>>
<</if>>