<<widget "wolf">><<nobr>>

<<add_link "<<wolficon>><<link [[Wolf Street (0:05) (Temple)|Wolf Street]]>><<pass 5>><</link>><br>">>
<<hideDisplay true>>
<</nobr>><</widget>>

<<widget "wolfquick">><<nobr>>

<<link [[Wolf Street|Wolf Street]]>><</link>>

<</nobr>><</widget>>

<<widget "wolfeventend">><<nobr>>

<<link [[Next|Wolf Street]]>><<set $eventskip to 1>><</link>>

<</nobr>><</widget>>