<<if $molestationstart is 1>>
	<<set $molestationstart to 0>>
	<<controlloss>>
	<<violence 1>>
	<<neutral 1>>
	<<molested>>
	<<maninit>>
	<<if $phase is 1>>
		<<set $enemytrust -= 80>>
		<<set $enemyanger += 120>>
	<<else>>
		<<set $enemytrust -= 40>>
	<</if>>
<</if>>
<<effects>>
<<effectsman>><<man>>
<<stateman>>
<br><br>
<<actionsman>>
<<if $enemyarousal gte $enemyarousalmax>>
	<span id="next"><<link [[Next|Underground Cell Molestation Finish]]>><</link>></span><<nexttext>>
<<elseif $enemyhealth lte 0>>
	<span id="next"><<link [[Next|Underground Cell Molestation Finish]]>><</link>></span><<nexttext>>
<<else>>
	<span id="next"><<link [[Next|Underground Cell Molestation]]>><</link>></span><<nexttext>>
<</if>>