<<if $sexstart is 1>>
	<<set $sexstart to 0>>
	<<consensual>>
	<<set $consensual to 1>>
	<<neutral 1>>

	<<beastNEWinit 1 dog>>
<</if>>

<<effects>>
<<effectsman>>
<br>
<<beast $enemyno>>
<br><br>

<<stateman>>
<br><br>
<<actionsman>>

<<if $finish is 1>>
	<span id="next"><<link [[Next|Beast Sex Finish]]>><</link>></span><<nexttext>>
<<elseif $enemyarousal gte $enemyarousalmax>>
	<span id="next"><<link [[Next|Beast Sex Finish]]>><</link>></span><<nexttext>>
<<elseif $enemyhealth lte 0>>
	<span id="next"><<link [[Next|Beast Sex Finish]]>><</link>></span><<nexttext>>
<<else>>
	<span id="next"><<link [[Next|Beast Sex]]>><</link>></span><<nexttext>>
<</if>>