<<generate1>><<generate2>>
<<saveNPC 0 "john">>
<<saveNPC 1 "jane">>
<<endevent>>

<<loadNPC 0 "john">><<person1>>
<<loadNPC 1 "jane">><<person2>>

<<endevent>>

<<if $per_npc.john isnot undefined>>
	<<loadNPC 0 "john">><<person1>>
	<<endevent>>
<</if>>
<<if $per_npc.jane isnot undefined>>
	<<loadNPC 0 "jane">><<person1>>
	<<endevent>>
<</if>>

<<clearNPC "john">>
<<clearNPC "jane">>