<<widget "ejaculation-eden">><<nobr>>
<<set $ejaculating to 1>>

<<if $sexavoid is 0 or $rapeavoid is 0>>
	<<if $consensual is 1>>
		<<famesex 1>>
	<<else>>
		<<famerape 1>>
	<</if>>
<</if>>
<<if $exposed is 1>>
	<<fameexhibitionism 1>>
<<elseif $exposed gte 2>>
	<<fameexhibitionism 2>>
<</if>>

<<if $NPCList[0].pronoun is "m">>
	<<set $pronoun to "m">>
<</if>>
<<if $NPCList[0].pronoun is "f">>
	<<set $pronoun to "f">>
<</if>>
<<if $NPCList[0].pronoun is "i">>
	<<set $pronoun to "i">>
<</if>>
<<if $NPCList[0].pronoun is "n">>
	<<set $pronoun to "n">>
<</if>>
<<if $NPCList[0].pronoun is "t">>
	<<set $pronoun to "t">>
<</if>>

<<if $enemytype is "man">>
	<<set $NPCList[0].intro to 1>>
<<else>>
	<<set $pronoun to "i">>
<</if>>

<!-- Female EDEN -->
<<if $NPCList[0].vagina isnot "none" and $NPCList[0].penis is "none">>
	<<if $consensual is 1>>
		<<if $NPCList[0].vagina is "mouthentrance" or $NPCList[0].vagina is "mouth" or $NPCList[0].vagina is "mouthimminent">>
			<<switch random(1, 4)>>
			<<case 1 2>>
				<<He>> moan as <<his>> hips thrust against your face, <<his>> thighs shaking with orgasm.
				<br><br>
			<<case 3 4>>
				<<His>> blush deepens and mouth gapes as <<he>> cums, <<his>> body twitching all over.
				<br><br>
			<<case 5>>
				<<He>> screams, cupping your head in <<his>> hand and thrusting against your face as <<he>> cums.
				<br><br>
				<<faceejacstat>><<ejacstat>><<set $hygiene += 500>><<set $facegoo += 1>>
			<</switch>>
		<<elseif $NPCList[0].vagina is "leftarm">>
			<<switch random(1, 5)>>
			<<case 1 2>>
				<<He>> sighs as you finish with <<his>> pussy, <<his>> thighs trembling against your hand as <<his>> body convulses.
				<br><br>
				<<handejacstat>><<ejacstat>><<set $hygiene += 500>><<set $leftarmgoo += 1>>
			<<case 3 4>>
				<<His>> blush deepen and <<his>> mouth gapes as <<he>> cums. You feel <<his>> pussy twitch against <<his>> hand.
				<br><br>
				<<handejacstat>><<ejacstat>><<set $hygiene += 500>><<set $leftarmgoo += 1>>
			<<case 5>>
				<<He>> screams as <<he>> grasps your hand and fucks your fingers with <<his>> pussy. You feel <<his>> interior twitch.
				<br><br>
				<<handejacstat>><<ejacstat>><<set $hygiene += 500>><<set $leftarmgoo += 1>>
			<</switch>>
		<<elseif $NPCList[0].vagina is "rightarm">>
			<<switch random(1, 5)>>
			<<case 1 2>>
				<<His>> knees tremble and <<he>> grasps your body for support as you finish with <<his>> pussy.
				<br><br>
				<<handejacstat>><<ejacstat>><<set $hygiene += 500>><<set $rightarmgoo += 1>>
			<<case 3 4>>
				<<His>> blush deepen and <<his>> mouth gapes as <<he>> cums. You feel <<his>> pussy twitch.
				<br><br>
				<<handejacstat>><<ejacstat>><<set $hygiene += 500>><<set $rightarmgoo += 1>>
			<<case 5>>
				<<He>> screams and grasps your hand before fucking <<his>> pussy with your fingers. You feel <<his>> insides twitch.
				<br><br>
				<<handejacstat>><<ejacstat>><<set $hygiene += 500>><<set $rightarmgoo += 1>>
			<</switch>>
		<<elseif $NPCList[0].vagina is "lefthand" or $NPCList[0].vagina is "righthand">>
			<<switch random(1, 5)>>
			<<case 1 2>>
				<<He>> sighs and trembles as <<he>> cums, barely able to keep <<his>> fingers inside <<his>> pussy.
				<br><br>
			<<case 3 4>>
				<<He>> moans shakes, <<his>> juices dripping on the ground. <<He>> withdraws <<his>> hand and sighs.
				<br><br>
			<<case 5>>
				<<He>> screams as <<he>> cums, <<his>> juices soaking <<his>> pussy and thighs. "You might need to clean me up."
				<br><br>
			<</switch>>
		<<elseif $NPCList[0].vagina is "feet">>
			<<switch random(1, 5)>>
			<<case 1 2>>
				<<He>> moans as you knead <<his>> pussy with your feet. <<His>> body trembles in orgasm.
				<br><br>
				<<feetejacstat>><<ejacstat>><<set $hygiene += 500>><<set $feetgoo += 1>>
			<<case 3 4>>
				<<He>> shakes as <<he>> cums, <<his>> pussy twitching beneath your feet.
				<br><br>
				<<feetejacstat>><<ejacstat>><<set $hygiene += 500>><<set $feetgoo += 1>>
			<<case 5>>
				<<He>> screams as <<he>> cums. <<He>> shakes for a moment, then <<his>> whole body falls limp.
				<br><br>
				<<feetejacstat>><<ejacstat>><<set $hygiene += 500>><<set $feetgoo += 1>>
			<</switch>>
		<<elseif $NPCList[0].vagina is "vagina" and $worn.genitals.type.includes("chastity")>>
			<<He>> screams as <<he>> cums against your $worn.genitals.name. "Next time," <<he>> says, panting. "I want to rub your pussy directly."
			<br><br>
		<<elseif $NPCList[0].vagina is "vagina">>
			<<switch random(1, 5)>>
			<<case 1 2>>
				<<He>> moans with pleasure as <<he>> cums. You feel <<his>> pussy twitch against yours.
				<br><br>
			<<case 3 4>>
				<<He>> moans as your <<pussy>> rubs against <<his>>, legs shaking as <<he>> cums.
				<br><br>
			<<case 5>>
				<<He>> screams, cupping <<his>> arms under your shoulders as <<his>> entire body shakes. You feel <<his>> pussy twitch against yours.
				<br><br>
				<<vaginalentranceejacstat>><<ejacstat>><<set $hygiene += 500>><<set $vaginaoutsidegoo += 1>>
			<</switch>>
		<<elseif $NPCList[0].vagina is "othermouth">>
			<<switch random(1, 5)>>
			<<case 1 2>>
				<<He>> shudders with pleasure, exhaling against your crotch as <<he>> cum.
				<br><br>
				<<vaginalentranceejacstat>><<ejacstat>><<set $hygiene += 500>><<set $vaginaoutsidegoo += 1>>
			<<case 3 4>>
				<<He>> gives your <<pussy>> a slow, savage lick. You feel it shake as <<he>> cums.
				<br><br>
				<<vaginalentranceejacstat>><<ejacstat>><<set $hygiene += 500>><<set $vaginaoutsidegoo += 1>>
			<<case 5>>
				<<He>> screams and clutches <<his>> thighs as <<he>> cums, breathing hard on your <<pussy>>.
				<br><br>
			<</switch>>
		<!-- following appear to be Male PC to Female Antagonist only? -->
		<<elseif $NPCList[0].vagina is "otheranus">>
			<<switch random(1, 5)>>
			<<case 1 2>>
				<<He>> shakes as <<he>> cums, driving <<his>> ass hard against your <<penis>>.
				<br><br>
			<<case 3 4>>
				<<He>> shakes as <<he>> cums, <<his>> ass pounding your <<penis>> with savage intensity.
				<br><br>
			<<case 5>>
				<<He>> screams and bucks against your <<penis>> as <<he>> cums. "I knew there was a reason I kept you around."
				<br><br>
				<<thighejacstat>><<ejacstat>><<set $hygiene += 500>><<set $thighgoo += 1>>
			<</switch>>
		<<elseif $NPCList[0].vagina is "penis">>
			<<switch random(1, 6)>>
			<<case 1 2>>
				<<He>> grasps your shoulders as <<he>> cums, driving <<his>> pussy down hard against your cock. <<He>> shudders with pleasure. "You're mine. Don't ever forget it."
				<br><br>
				<<penileejacstat>><<ejacstat>><<set $hygiene += 500>><<set $penisgoo += 1>>
			<<case 3 4>>
				<<His>> blush deepens and <<his>> body convulses as <<he>> cums. <<His>> pussy twitches around your <<penis>>.
				<br><br>
				<<penileejacstat>><<ejacstat>><<set $hygiene += 500>><<set $penisgoo += 1>>
			<<case 5>>
				<<He>> screams and bucks against your lap as <<he>> cums, taking your <<penis>> as hard as <<he>> can.
				<br><br>
				<<penileejacstat>><<ejacstat>><<set $hygiene += 500>><<set $penisgoo += 1>>
				<<thighejacstat>><<ejacstat>><<set $hygiene += 500>><<set $thighgoo += 1>>
			<</switch>>
		<<elseif ($NPCList[0].vagina is "penisimminent" or $NPCList[0].vagina is "penisentrance") and $worn.genitals.type.includes("chastity")>>
			<<He>> screams as <<he>> cums, <<his>> body shuddering against yours. "If you weren't wearing that thing," <<he>> says, panting. "I'd give you a proper seeing to."
			<br><br>
		<<elseif $NPCList[0].vagina is "penisimminent" or $NPCList[0].vagina is "penisentrance">>
			<<He>> You feel <<his>> pussy twitch against the tip of your <<penis>> as <<he>> cums. "Next time I'll give you a proper fucking."
			<br><br>
		<<elseif $NPCList[0].vagina is "otheranusfrot" or $NPCList[0].vagina is "otheranusentrance">>
			<<He>> bucks <<his>> ass against your cock as <<he>> cums, rubbing it between <<his>> cheeks. "Next time I want you to fuck me. I don't keep you around to toy with my ass."
			<br><br>
		<<elseif $NPCList[0].vagina is "frot">>
			<<He>> rubs <<his>> clit against your cock as <<he>> cums, <<his>> whole body shuddering. <<He>> looks frustrated. "I want nothing more than to have that cock inside me. I deserve a medal for restraint."
			<br><br>
			<<penileejacstat>><<ejacstat>><<set $hygiene += 500>><<set $penisgoo += 1>>
		<!-- Special case male PC with female NPC -->
		<<elseif $NPCList[0].mouth is "penis">>
			<<switch random(1, 4)>>
			<<case 1 2>>
				<<He>> cums as you fuck <<his>> mouth. You feel <<him>> tremble.
				<br><br>
			<<case 3 4>>
				<<He>> cums with <<his>> lips still wrapped around your <<penis>>, and grasps your thighs with both hands.
				<br><br>
			<</switch>>
		<<else>>
			<<He>> convulses in orgasmic bliss.
			<br><br>
		<</if>>
	<<else>>
		<<if $NPCList[0].vagina is "footjob">>
			<<switch random(1, 5)>>
			<<case 1 2 3>>
				<<He>> gasps as <<he>> cums. <<He>> smiles as <<he>> recovers, resting <<his>> foot on your tummy. "That's a good <<girl>>."
				<br><br>
			<<case 4 5>>
				<<He>> moans as <<he>> cums. <<He>> moves <<his>> foot away from your <<penis>> to spare you the violent spasms.
				<br><br>
			<</switch>>
		<<elseif $NPCList[0].vagina is "vagina" and $worn.genitals.type.includes("chastity")>>
			<<He>> gasps your hair as <<he>> cums, pulling it tight. "If only you weren't locked up," <<he>> pants. "I'm gonna find out who has the key."
			<br><br>
		<<elseif $NPCList[0].vagina is "vagina">>
			<<switch random(1, 5)>>
			<<case 1 2>>
				<<He>> moans as <<he>> cums. You feel <<his>> pussy twitch against yours.
				<br><br>
			<<case 3 4>>
				<<He>> moans as <<he>> grasps you by the throat and rubs <<his>> pussy hard against yours.
				<<gstress>><<gtrauma>><<gpain>><<violence 3>><<bruise neck>><<hitstat>>
				<br><br>
			<<case 5>>
				<<He>> screams, grasping your hair and mashing <<his>> body against yours. <<His>> whole body twitches with violent spasms.
				<br><br>
				<<vaginalentranceejacstat>><<ejacstat>><<set $hygiene += 500>><<set $vaginaoutsidegoo += 1>>
			<</switch>>
		<<elseif $NPCList[0].vagina is "othermouth">>
			<<He>> shakes with arousal as <<he>> cums, <<his>> pussy trembling against your tongue.
			<br><br>
		<<elseif $NPCList[0].vagina is "lefthand" or $NPCList[0].vagina is "righthand">>
			<<He>> moans as <<he>> cums. <<He>> <span class="pink">grasps your hair and pulls you close.</span> "Don't forget I'm the only one you're allowed to pleasure."
			<br><br>
		<<elseif $NPCList[0].vagina is "mouthentrance" or $NPCList[0].vagina is "mouth" or $NPCList[0].vagina is "mouthimminent">>
			<<He>> moans and grasps your hair, rubbing <<his>> pussy against you as <<his>> thighs shake with orgasm.
			<br><br>
			<<faceejacstat>><<ejacstat>><<set $hygiene += 500>><<set $facegoo += 1>>
		<!-- following appear to be Male PC to Female Antagonist only? -->
		<<elseif $NPCList[0].vagina is "otheranus">>
			<<He>> shakes as <<he>> cums, grasping your
			<<if $player.ballsExist>>balls<<elseif $vaginaexist is 1>>pussy<</if>>
			and taking your <<penis>> deep into <<his>> ass as <<he>> releases a final moan.
			<br><br>
		<<elseif $NPCList[0].vagina is "penis">>
			<<He>> digs <<his>> nails into your shoulders as <<he>> cums, driving <<his>> pussy down hard against your cock. <<He>> shudders with pleasure.
			<br><br>
		<<elseif ($NPCList[0].vagina is "penisimminent" or $NPCList[0].vagina is "penisentrance") and $worn.genitals.type.includes("chastity")>>
			<<He>> grasps your hair as <<he>> cums, thrusting against your $worn.genitals.name. "If you weren't locked up," <<he>> says. "I wouldn't be able to stop myself ravaging you."
			<br><br>
		<<elseif $NPCList[0].vagina is "penisimminent" or $NPCList[0].vagina is "penisentrance">>
			<<He>> moans as <<he>> cums. You feel <<his>> pussy twitch against the tip of you <<penis>>. "I deserve a medal for restraint," <<he>> says. "Your cock is begging to be fucked."
			<br><br>
		<<elseif ($NPCList[0].vagina is "otheranusfrot" or $NPCList[0].vagina is "otheranusentrance") and $worn.genitals.type.includes("chastity")>>
			<<He>> grasps your hair as <<he>> cums. You feel <<him>> tremble against your $worn.genitals.name. "That chastity device," <<he>> says. "I can't wait to take you properly."
			<br><br>
		<<elseif $NPCList[0].vagina is "otheranusfrot" or $NPCList[0].vagina is "otheranusentrance">>
			<<He>> rubs <<his>> ass against your cock as <<he>> cums. "You're such a good tease," <<he>> pants. "Not having you inside me is almost unbearable."
			<br><br>
		<<elseif $NPCList[0].vagina is "frot" and $worn.genitals.type.includes("chastity")>>
			<<He>> grasps your hair as <<he>> cums, <<his>> body trembling against your $worn.genitals.name. "I'm gonna find that key," <<he>> says. "Then I'll give you a proper seeing to."
			<br><br>
		<<elseif $NPCList[0].vagina is "frot">>
			<<He>> grasps your the throat, pulling you down and rubbing <<his>> clit against your cock as <<he>> cums. "I want to fuck your cock properly next time. Your teasing drives me mad."
			<<gstress>><<gtrauma>><<gpain>><<violence 3>><<bruise neck>><<hitstat>>
			<br><br>
		<!-- Special case male PC with female NPC -->
		<<elseif $NPCList[0].mouth is "penis">>
			<<He>> cums as you fuck <<his>> mouth, until <<he>> pulls away and gasps for air. "That's enough."
			<br><br>
		<<else>>
			<<switch random(1, 7)>>
			<<case 1 2 3>>
				<<He>> trembles with orgasm. <<He>> pulls you close. "Good <<girl>>," <<he>> whispers.
				<br><br>
			<<case 4 5 6>>
				<<He>> sighs as <<he>> cums, and gives your <<bottom>> a light spank. "You're my prized possession," <<he>> says. "Don't forget it."
				<br><br>
			<<case 7>>
				<<He>> rubs <<his>> clit and screams as <<he>> cums, before lying back and panting, one arm over <<his>> eyes and the other grasping your hair.
				<br><br>
				<<chestejacstat>><<ejacstat>><<set $hygiene += 500>><<set $chestgoo += 1>>
			<</switch>>
		<</if>>
	<</if>>
<</if>>

<!-- Male EDEN -->
<<if $consensual is 1>>
	<<if $NPCList[0].penis is "idle">>
		<<He>> moans as a wet patch forms on <<his>> trousers. You stifle a giggle at the sight.
		<br><br>
	<<elseif $NPCList[0].penis is "thighs">>
		<<switch random(1, 7)>>
		<<case 1 2 3>>
			<<He>> shakes as <<he>> cums, pulling <<his>> $NPCList[0].penisdesc out and ejaculating onto the backs of your thighs.
			<br><br>
			<<thighejacstat>><<ejacstat>><<set $hygiene += 500>><<set $thighsemen += 1>>
		<<case 4 5 6>>
			<<He>> grasps your legs for purchase as <<he>> approaches <<his>> peak, before ejaculating between your thighs and onto your tummy.
			<br><br>
			<<tummyejacstat>><<ejacstat>><<set $hygiene += 500>><<set $tummysemen += 1>>
		<<case 7>>
			<<He>> moans as <<he>> cums, ejaculating a massive load that covers your thighs and tummy.
			<br><br>
			<<thighejacstat>><<ejacstat>><<set $hygiene += 500>><<set $thighsemen += 1>>
			<<tummyejacstat>><<ejacstat>><<set $hygiene += 500>><<set $tummysemen += 1>>
		<</switch>>
	<<elseif $NPCList[0].penis is "vaginaentrance" and $worn.genitals.type.includes("chastity")>>
		<<He>> moans as <<he>> cums, ejaculating over your $worn.genitals.name. "I'm gonna find the key holder," <<he>> gasps. "Then I'll give you a proper seeing to."
		<br><br>
	<<elseif $NPCList[0].penis is "vaginaentrance">>
		<<switch random(1, 7)>>
		<<case 1 2 3>>
			<<He>> holds you still by the hips while <<his>> $NPCList[0].penisdesc rubs against your <<pussy>>. The sensation proves too much, and <<he>> ejaculates onto your labia.
			<br><br>
			<<vaginalentranceejacstat>><<ejacstat>><<set $hygiene += 500>><<set $vaginaoutsidesemen += 1>>
		<<case 4 5 6>>
			<<He>> rubs <<his>> $NPCList[0].penisdesc against your <<pussy>> and climaxes, sending white streams of semen otno your labia.
			<br><br>
			<<vaginalentranceejacstat>><<ejacstat>><<set $hygiene += 500>><<set $vaginaoutsidesemen += 1>>
		<<case 7>>
			<<He>> moans as <<he>> rubs <<his>> $NPCList[0].penisdesc cums, sending thick ropes of semen onto your <<pussy>> and ass.
			<br><br>
			<<vaginalentranceejacstat>><<ejacstat>><<set $hygiene += 500>><<set $vaginaoutsidesemen += 1>>
			<<bottomejacstat>><<ejacstat>><<set $hygiene += 500>><<set $bottomsemen += 1>>
		<</switch>>
	<<elseif $NPCList[0].penis is "vaginaimminent" and $worn.genitals.type.includes("chastity")>>
		<<He>> moans as <<he>> cums, ejaculating over your $worn.genitals.name. "I'm gonna find whoever has the key," <<he>> gasps. "Then fuck you until you can't walk."
		<br><br>
	<<elseif $NPCList[0].penis is "vaginaimminent">>
		<<switch random(1, 7)>>
		<<case 1 2 3>>
			<<He>> cums before <<he>> can penetrate your <<pussycomma>> ejaculating on your labia. "I deserve a medal for restraint," <<he>> says. "Your unguarded pussy was right there, teasing me."
			<br><br>
			<<vaginalentranceejacstat>><<ejacstat>><<set $hygiene += 500>><<set $vaginaoutsidesemen += 1>>
		<<case 4 5 6>>
			<<He>> tries to push <<his>> $NPCList[0].penisdesc into you as <<he>> approaches <<his>> peak, but <<his>> body's spasms betray <<him>>. <<He>> ejaculates, sending white streams of semen onto your labia. "Fuck," <<he>> says. "So close."
			<br><br>
			<<vaginalentranceejacstat>><<ejacstat>><<set $hygiene += 500>><<set $vaginaoutsidesemen += 1>>
		<<case 7>>
			<<He>> grasps your hips for purchase and tries to bury <<his>> $NPCList[0].penisdesc in your <<pussy>>, but cums too soon. Thick ropes of semen cover your labia, and drip over your <<bottom>>. "You're almost too hot."
			<br><br>
			<<vaginalentranceejacstat>><<ejacstat>><<set $hygiene += 500>><<set $vaginaoutsidesemen += 1>>
			<<bottomejacstat>><<ejacstat>><<set $hygiene += 500>><<set $bottomsemen += 1>>
		<</switch>>
	<<elseif $NPCList[0].penis is "vagina">>
		<<switch random(1, 7)>>
		<<case 1 2 3>>
			<<He>> moans and thrusts deep into your <<pussy>> as <<he>> cums. <<His>> $NPCList[0].penisdesc pulses as warm semen fills you.
			<br><br>
			<<vaginalejacstat>><<ejacstat>><<set $hygiene += 500>><<set $vaginasemen += 1>>
		<<case 4 5 6>>
			<<He>> grasps your shoulders and pulls your body onto <<his>> $NPCList[0].penisdesc as <<he>> cums. Warm semen fills your <<pussy>>, leaving you breathless.
			<br><br>
			<<vaginalejacstat>><<ejacstat>><<set $hygiene += 500>><<set $vaginasemen += 1>>
		<<case 7>>
			<<He>> convulses and pounds your crotch as <<he>> cums, sending thick waves of semen into your <<pussystop>> It drips down your thighs.
			<br><br>
			<<vaginalentranceejacstat>><<ejacstat>><<set $hygiene += 500>><<set $vaginaoutsidesemen += 1>>
			<<thighejacstat>><<ejacstat>><<set $hygiene += 500>><<set $thighsemen += 1>>
		<</switch>>
	<<elseif $NPCList[0].penis is "cheeks" and $worn.genitals.type.includes("chastity")>>
		<<He>> gasps as <<he>> cums, ejaculating over your $worn.genitals.name. "That fucking device," <<he>> gasps. "Your ass deserves such a pounding."
		<br><br>
	<<elseif $NPCList[0].penis is "cheeks">>
		<<switch random(1, 7)>>
		<<case 1 2 3>>
			<<He>> shakes as <<he>> cums, <<his>> $NPCList[0].penisdesc erupting over your <<bottom>>.
			<br><br>
			<<bottomejacstat>><<ejacstat>><<set $hygiene += 500>><<set $bottomsemen += 1>>
		<<case 4 5 6>>
			<<He>> grasps your thighs as <<he>> pushes <<his>> $NPCList[0].penisdesc against your <<bottom>> and ejaculates between your cheeks.
			<br><br>
			<!-- Really should be onto PCs back given position. Or hair maybe. Esp next one -->
			<<bottomejacstat>><<ejacstat>><<set $hygiene += 500>><<set $bottomsemen += 1>>
		<<case 7>>
			<<He>> squeezes your cheeks together and moans as <<he>> cums, ejaculating a massive load that covers your <<bottom>>. "You're so fucking hot."
			<br><br>
			<<bottomejacstat>><<ejacstat>><<set $hygiene += 1000>><<set $bottomsemen += 2>>
		<</switch>>
	<<elseif $NPCList[0].penis is "anusentrance" and $worn.genitals.type.includes("chastity") and $worn.genitals.anal_shield is 1>>
		<<He>> gasps as <<he>> cums, ejaculating over your $worn.genitals.name. "Whoever has the key," <<he>> gasps. "Owes me an ass fucking."
		<br><br>
	<<elseif $NPCList[0].penis is "anusentrance">>
		<<switch random(1, 7)>>
		<<case 1 2 3>>
			<<He>> pinches your <<bottom>> as <<he>> rubs <<his>> cock against it. <<He>> ejaculates, semen spurting over your cheeks.
			<br><br>
			<<bottomejacstat>><<ejacstat>><<set $hygiene += 500>><<set $bottomsemen += 1>>
		<<case 4 5 6>>
			<<He>> cums against your <<bottom>> with a shudder.
			<br><br>
			<<bottomejacstat>><<ejacstat>><<set $hygiene += 500>><<set $bottomsemen += 1>>
		<<case 7>>
			<<He>> moans as <<he>> cums against your <<bottom>>, sending thick ropes of semen onto yoru cheeks.
			<br><br>
			<<bottomejacstat>><<ejacstat>><<set $hygiene += 1000>><<set $bottomsemen += 2>>
		<</switch>>
	<<elseif $NPCList[0].penis is "anusimminent" and $worn.genitals.type.includes("chastity") and $worn.genitals.anal_shield is 1>>
		<<He>> moans as <<he>> cums, ejaculating over your $worn.genitals.name. "That ass will be ravaged," <<he>> gasps. "Once I get this thing off you."
		<br><br>
	<<elseif $NPCList[0].penis is "anusimminent">>
		<<switch random(1, 7)>>
		<<case 1 2 3>>
			<<He>> tries to thrust into your <<bottom>> as <<he>> approaches <<his>> peak, but cums too soon. Semen splatters against your cheeks. "Fuck. Sometimes you're just too hot."
			<br><br>
			<<bottomejacstat>><<ejacstat>><<set $hygiene += 500>><<set $bottomsemen += 1>>
		<<case 4 5 6>>
			<<He>> grasps your hips for purchase and tries to fuck your <<bottom>>, but is overcome by sensation and ejaculates over your cheeks.
			<br><br>
			<<bottomejacstat>><<ejacstat>><<set $hygiene += 500>><<set $bottomsemen += 1>>
		<<case 7>>
			<<His>> $NPCList[0].penisdesc pressen against your <<bottom>> as <<he>> cums. Thick ropes of semen erupt over your cheeks.
			<br><br>
			<<bottomejacstat>><<ejacstat>><<set $hygiene += 1000>><<set $bottomsemen += 2>>
		<</switch>>
	<<elseif $NPCList[0].penis is "anus">>
		<<switch random(1, 7)>>
		<<case 1 2 3>>
			<<He>> moans and thrusts <<his>> $NPCList[0].penisdesc deep into your <<bottom>> as <<he>> cums. You gasp as you take <<his>> entire length, <<his>> warm semen filling you.
			<br><br>
			<<analejacstat>><<ejacstat>><<set $hygiene += 500>><<set $anussemen += 1>>
		<<case 4 5 6>>
			<<He>> grasps your shoulders and pulls you against <<his>> $NPCList[0].penisdesc as <<he>> cums. <<His>> cock twitches as it fills you.
			<br><br>
			<<analejacstat>><<ejacstat>><<set $hygiene += 500>><<set $anussemen += 1>>
		<<case 7>>
			<<He>> convulses and, with a final thrust, cums in your ass. Thick waves of semen pump into you. It drips down your thighs
			<br><br>
			<<analejacstat>><<ejacstat>><<set $hygiene += 500>><<set $anussemen += 1>>
			<<thighejacstat>><<ejacstat>><<set $hygiene += 500>><<set $thighsemen += 1>>
		<</switch>>
	<<elseif $NPCList[0].penis is "chest">>
		<<switch random(1, 7)>>
		<<case 1 2 3>>
			<<He>> thrusts between your <<breasts>> as <<he>> ejaculates, covering your chest in semen.
			<br><br>
			<<chestejacstat>><<ejacstat>><<set $hygiene += 500>><<set $chestsemen += 1>>
		<<case 4 5 6>>
			<<He>> rubs <<his>> penis against your <<breasts>>, and shudders into orgasm.
			<br><br>
			<<chestejacstat>><<ejacstat>><<set $hygiene += 500>><<set $chestsemen += 1>>
		<<case 7>>
			<<He>> grasps your neck as <<he>> bears down on your <<breastscomma>> moaning as <<he>> cums. Semen erupts over your <<breasts>> and covers your <<if $position is "missionary">>face<<faceejacstat>><<ejacstat>><<set $hygiene += 500>><<set $facesemen += 1>><<else>>stomach<<tummyejacstat>><<ejacstat>><<set $hygiene += 500>><<set $tummysemen += 1>><</if>>. "I think you'll need a bath."
			<br><br>
			<<chestejacstat>><<ejacstat>><<set $hygiene += 500>><<set $chestsemen += 1>>
		<</switch>>
	<<elseif $NPCList[0].penis is "mouthentrance">>
		<<switch random(1, 7)>>
		<<case 1 2 3>>
			<<He>> cups your chin with one hand and pushes your lips against <<his>> $NPCList[0].penisdesc. The sensation proves too much, and <<he>> ejaculates over your face.
			<br><br>
			<<faceejacstat>><<ejacstat>><<set $hygiene += 500>><<set $facesemen += 1>>
		<<case 4 5 6>>
			<<He>> presses <<his>> $NPCList[0].penisdesc against your cheek, and ejaculates over your face.
			<br><br>
			<<faceejacstat>><<ejacstat>><<set $hygiene += 500>><<set $facesemen += 1>>
		<<case 7>>
			<<He>> grasps your hair and rubs your face against <<his>> $NPCList[0].penisdesc. Thick ropes of cum cover your face and push past your closed lips. "You're so cute. My favourite possession."
			<br><br>
			<<faceejacstat>><<ejacstat>><<set $hygiene += 500>><<set $facesemen += 1>>
			<<oralejacstat>><<ejacstat>><<set $hunger -= 200>><<set $thirst -= 200>><<set $mouthsemen += 1>>
		<</switch>>
	<<elseif $NPCList[0].penis is "mouthimminent">>
		<<switch random(1, 7)>>
		<<case 1 2 3>>
			<<He>> grasps your hair and tries to force <<his>> $NPCList[0].penisdesc past your lips, but cumes too soon. Semen erupts onto your face. "Sometimes, I think you're too hot."
			<br><br>
			<<faceejacstat>><<ejacstat>><<set $hygiene += 500>><<set $facesemen += 1>>
		<<case 4 5 6>>
			<<He>> tries to penetrate your mouth, but cumes too early. It drips down your lips and chin. "I couldn't hold on long enough."
			<br><br>
			<<faceejacstat>><<ejacstat>><<set $hygiene += 500>><<set $facesemen += 1>>
		<<case 7>>
			<<He>> shudders as <<he>> approaches <<his>> peak. <<He>> grasps your hair and tries to thrust <<his>> $NPCList[0].penisdesc into your mouth, but <<his>> body trembles too much. Thick ropes of cum cover your cheeks and chin. Some fluid makes it past your lips.
			<br><br>
			<<faceejacstat>><<ejacstat>><<set $hygiene += 500>><<set $facesemen += 1>>
			<<oralejacstat>><<ejacstat>><<set $hunger -= 200>><<set $thirst -= 200>><<set $mouthsemen += 1>>
		<</switch>>
	<<elseif $NPCList[0].penis is "mouth">>
	<!-- this is picking up women NPCs...? -->
		<<switch random(1, 7)>>
		<<case 1 2 3>>
			<<He>> grasps your chin with one hand and hair with the other, thrusting <<his>> $NPCList[0].penisdesc deep into your mouth as <<he>> cums. Semen streams down your throat and fills your mouth.
			<br><br>
			<<oralejacstat>><<ejacstat>><<set $hunger -= 200>><<set $thirst -= 200>><<set $mouthsemen += 1>>
		<<case 4 5 6>>
			<<He>> grasps the back of your head and moans, <<his>> $NPCList[0].penisdesc filling your mouth with semen.
			<br><br>
			<<oralejacstat>><<ejacstat>><<set $hunger -= 200>><<set $thirst -= 200>><<set $mouthsemen += 1>>
		<<case 7>>
			<<He>> grasps the back of your head, <<his>> $NPCList[0].penisdesc violating your mouth with savage thrusts. Semen streams down your throat, then fills your mouth and covers your face as <<he>> pulls out. "It's your fault if I lose control. You have that effect on me."
			<br><br>
			<<faceejacstat>><<ejacstat>><<set $hygiene += 500>><<set $facesemen += 1>>
			<<oralejacstat>><<ejacstat>><<set $hunger -= 200>><<set $thirst -= 200>><<set $mouthsemen += 1>>
		<</switch>>
	<<elseif $NPCList[0].penis is "feet">>
		<<switch random(1, 7)>>
		<<case 1 2 3>>
			<<He>> moans as <<he>> cums between your feet, ejaculating over them.
			<br><br>
			<<feetejacstat>><<ejacstat>><<set $hygiene += 500>><<set $feetsemen += 1>>
		<<case 4 5 6>>
			<<He>> cums between your feet, leaving them slick with semen.
			<br><br>
			<<feetejacstat>><<ejacstat>><<set $hygiene += 500>><<set $feetsemen += 1>>
		<<case 7>>
			<<He>> moans and attacks your feet with savage thrusts. <<His>> ejaculate arcs as high as your thighs.
			<br><br>
			<<feetejacstat>><<ejacstat>><<set $hygiene += 500>><<set $feetsemen += 1>>
			<<thighejacstat>><<ejacstat>><<set $hygiene += 500>><<set $thighsemen += 1>>
		<</switch>>
	<<elseif $NPCList[0].penis is "leftarm" and $NPCList[0].penis is "rightarm">>
		<<switch random(1, 7)>>
		<<case 1 2 3>>
			<<He>> moans as <<he>> cums, penis pulsing in your hands and covering them both in cum. "You're good with your hands."
			<br><br>
			<<handejacstat>><<ejacstat>><<set $hygiene += 500>><<set $leftarmsemen += 1>><<set $rightarmsemen += 1>>
		<<case 4 5 6>>
			<<He>> cums onto your hands, leaving them slick with semen.
			<br><br>
			<<handejacstat>><<ejacstat>><<set $hygiene += 500>><<set $leftarmsemen += 1>><<set $rightarmsemen += 1>>
		<<case 7>>
			<<He>> spasms, moans, and thrusts against your hands, thick streams of cum erupting from <<his>> $NPCList[0].penisdesc and splattering over your face. "You're a fine <<wife>>."
			<br><br>
			<<handejacstat>><<ejacstat>><<set $hygiene += 500>><<set $leftarmsemen += 1>><<set $rightarmsemen += 1>>
			<<faceejacstat>><<ejacstat>><<set $hygiene += 500>><<set $facesemen += 1>>
		<</switch>>
	<<elseif $NPCList[0].penis is "leftarm">>
		<<switch random(1, 7)>>
		<<case 1 2 3>>
			<<He>> moans as <<he>> cums, <<his>> hot $NPCList[0].penisdesc ejaculting over your hand. "You should clean up You can't work with a hand like that."
			<br><br>
			<<handejacstat>><<ejacstat>><<set $hygiene += 500>><<set $leftarmsemen += 1>>
		<<case 4 5 6>>
			<<He>> cums onto your hand, slickening your fingers. "You can't work like that. You should wash up."
			<br><br>
			<<handejacstat>><<ejacstat>><<set $hygiene += 500>><<set $leftarmsemen += 1>>
		<<case 7>>
			<<He>> spasms and moans, shooting thick streams of cum and splattering your <<breasts>> in the process. "Sorry about the mess," <<he>> pants. "Go get cleaned up."
			<br><br>
			<<handejacstat>><<ejacstat>><<set $hygiene += 500>><<set $leftarmsemen += 1>>
			<<chestejacstat>><<ejacstat>><<set $hygiene += 500>><<set $chestsemen += 1>>
		<</switch>>
	<<elseif $NPCList[0].penis is "rightarm">>
		<<switch random(1, 7)>>
		<<case 1 2 3>>
			<<He>> moans as your work <<his>> shaft with your right hand. You give <<his>> $NPCList[0].penisdesc a final squeeze, and <<he>> shudders into orgasm, covering your hand in warm semen. "You should clean yourself up," <<he>> says. "You can't work like that."
			<br><br>
			<<handejacstat>><<ejacstat>><<set $hygiene += 500>><<set $rightarmsemen += 1>>
		<<case 4 5 6>>
			<<He>> cums onto your hand, slickening your fingers. "You can't work like that. You should wash up."
			<br><br>
			<<handejacstat>><<ejacstat>><<set $hygiene += 500>><<set $rightarmsemen += 1>>
		<<case 7>>
			<<He>> moans as thick ropes of semen erupt from <<his>> $NPCList[0].penisdesc, covering your hand. "Good job," <<he>> pants. "But make sure you clean up the mess."
			<br><br>
			<<handejacstat>><<ejacstat>><<set $hygiene += 500>><<set $rightarmsemen += 1>>
		<</switch>>
	<<elseif $NPCList[0].penis is 0>>
		<<switch random(1, 4)>>
		<<case 1>>
			<<He>> moans as <<he>> works <<his>> shaft and, giving <<his>> cock a final squeeze, ejaculates onto your tummy. "Marking my territory. Trespassers will pay."
			<br><br>
			<<tummyejacstat>><<ejacstat>><<set $hygiene += 500>><<set $tummysemen += 1>>
		<<case 2>>
			<<He>> rubs <<his>> $NPCList[0].penisdesc as <<he>> approaches <<his>> peak. It erupts over your face. "You're a mess," <<he>> pants. "Get yourself cleaned up."
			<br><br>
			<<faceejacstat>><<ejacstat>><<set $hygiene += 500>><<set $facesemen += 1>>
		<<case 3>>
			<<He>> strokes <<his>> $NPCList[0].penisdesc and ejaculates over your <<bottom>>.
			<br><br>
			<<bottomejacstat>><<ejacstat>><<set $hygiene += 500>><<set $bottomsemen += 1>>
		<<case 4>>
			<<He>> strokes <<his>> penis and moans, ejaculating onto your <<breastsstop>>
			<br><br>
			<<chestejacstat>><<ejacstat>><<set $hygiene += 500>><<set $chestsemen += 1>>
		<</switch>>
	<<elseif $NPCList[0].penis is "otheranus">>
		<<switch random(1, 7)>>
		<<case 1 2 3>>
			<<He>> moans as you fuck <<his>> ass, <<his>> ejaculate spraying onto <<his>> own stomach. "You're such a good <<wife>>."
			<br><br>
		<<case 4 5>>
			<<He>> whimpers as you pound <<his>> ass, moaning in pleasure as <<he>> ejaculates onto the ground. <<He>> comes to <<his>> senses, and looks a bit ashamed. "I let my guard down. I shouldn't let that happen. What if we're attacked?"
			<br><br>
		<<case 6 7>>
			<<He>> sighs as <<he>> ejaculates onto <<his>> own chest. "I don't want you to ever leave."
			<br><br>
		<</switch>>
	<<elseif ($NPCList[0].penis is "otheranusfrot" or $NPCList[0].penis is "otheranusentrance" or $NPCList[0].penis is "otheranusimminent") and $worn.genitals.type.includes("chastity")>>
		<<He>> moans as <<he>> cums, ejaculating over your $worn.genitals.name. "All the ways I would fuck you," <<He>> gasps. "If not for that chastity device."
		<br><br>
	<<elseif $NPCList[0].penis is "otheranusfrot" or $NPCList[0].penis is "otheranusentrance" or $NPCList[0].penis is "otheranusimminent">>
		<<switch random(1, 7)>>
		<<case 1 2 3>>
			<<He>> reaches behind you and grasps your <<bottom>>, helping you thrust against <<his>> cheeks. You feel <<his>> body shudder in orgasm. "Next time," <<he>> gasps. "I want you to fuck my ass properly."
			<br><br>
		<<case 4 5>>
			<<He>> moans and ejaculates onto the ground as you thrust against <<his>> ass. You leave <<him>> panting.
			<br><br>
		<<case 6 7>>
			<<He>> sighs and ejaculates onto <<his>> own chest.
			<br><br>
		<</switch>>
	<!-- Special case male PC being orally serviced by male NPC with no other contact -->
	<<elseif $NPCList[0].mouth is "penis">>
		<<switch random(1, 7)>>
		<<case 1 2 3>>
			<<He>> cums as you fuck <<his>> mouth, gasping against your cock. "Don't forget," <<he>> says. "You're mine forever."
			<br><br>
		<<case 4 5>>
			<<He>> cums on the ground as you fuck <<his>> mouth, leaving a pool beneath <<him>>.
			<br><br>
		<<case 6 7>>
			<<He>> grasps your <<bottom>> and drives your <<penis>> deeper into <<his>> mouth. <<He>> trembles, and ejaculates onto <<his>> own chest.
			<br><br>
		<</switch>>
	<<elseif $NPCList[0].penis is "othermouth">>
		<<He>> shakes with arousal as <<he>> cums, wiping <<his>> wet face clean on your body.
		<br><br>
	<</if>>
<<else>>
	<<if $NPCList[0].penis is "idle">>
		<<He>> groans as a wet patch forms on <<his>> trousers. You barely stifle a laugh at the pathetic display, but any mirth is soon driven from your mind by dread.
		<br><br>
	<<elseif $NPCList[0].penis is "thighs">>
		<<switch random(1, 7)>>
		<<case 1 2 3>>
			<<He>> shakes as <<he>> cums, pulling <<his>> cock out and ejaculating onto the backs of your thighs.
			<br><br>
			<<thighejacstat>><<ejacstat>><<set $hygiene += 500>><<set $thighsemen += 1>>
		<<case 4 5 6>>
			<<He>> grasps your thighs and thrusts <<his>> $NPCList[0].penisdesc hard between them as <<his>> cum shoots onto your tummy.
			<br><br>
			<<tummyejacstat>><<ejacstat>><<set $hygiene += 500>><<set $tummysemen += 1>>
		<<case 7>>
			<<He>> moans as <<he>> cums, ejaculating a massive load that covers your thighs and tummy. "You're mine. Don't forget it."
			<br><br>
			<<thighejacstat>><<ejacstat>><<set $hygiene += 500>><<set $thighsemen += 1>>
			<<tummyejacstat>><<ejacstat>><<set $hygiene += 500>><<set $tummysemen += 1>>
		<</switch>>
	<<elseif $NPCList[0].penis is "vaginaentrance" and $worn.genitals.type.includes("chastity")>>
		<<He>> gasps as <<he>> cums, ejaculating over your $worn.genitals.name. "My <<wife>> deserves to have <<pher>> womb filled," <<he>> says. "If only I could get this thing off."
		<br><br>
	<<elseif $NPCList[0].penis is "vaginaentrance">>
		<<switch random(1, 7)>>
		<<case 1 2 3>>
			<<He>> thrusts against your clit and labia, <<his>> $NPCList[0].penisdesc twitching and erupting with semen.
			<br><br>
			<<vaginalentranceejacstat>><<ejacstat>><<set $hygiene += 500>><<set $vaginaoutsidesemen += 1>>
		<<case 4 5 6>>
			<<He>> rubs <<his>> $NPCList[0].penisdesc against your <<pussy>> with savage thrust, each less coordinated than the last as <<he>> approaches <<his>> peak. <<He>> shudders into orgasm.
			<br><br>
			<<vaginalentranceejacstat>><<ejacstat>><<set $hygiene += 500>><<set $vaginaoutsidesemen += 1>>
		<<case 7>>
			<<He>> moans as <<he>> rubs <<his>> $NPCList[0].penisdesc against your <<pussy>>. Thick ropes of semen cover your crotch and <<bottom>>.
			<br><br>
			<<vaginalentranceejacstat>><<ejacstat>><<set $hygiene += 500>><<set $vaginaoutsidesemen += 1>>
			<<bottomejacstat>><<ejacstat>><<set $hygiene += 500>><<set $bottomsemen += 1>>
		<</switch>>
	<<elseif $NPCList[0].penis is "vaginaimminent" and $worn.genitals.type.includes("chastity")>>
		<<He>> moan as <<he>> cums, ejaculating over your $worn.genitals.name. "If only I could find the key," <<he>> gasps. "I'd give that pussy a proper fucking."
		<br><br>
	<<elseif $NPCList[0].penis is "vaginaimminent">>
		<<switch random(1, 7)>>
		<<case 1 2 3>>
			<<He>> tries to thrust into your <<pussy>>, but cums too soon, ejaculating onto your labia. <span class="red"><<He>> slaps your <<bottom>> in frustration.</span>
			<<gstress>><<gtrauma>><<gpain>><<violence 6>><<bruise bottom>><<hitstat>>
			<br><br>
			<<vaginalentranceejacstat>><<ejacstat>><<set $hygiene += 500>><<set $vaginaoutsidesemen += 1>>
		<<case 4 5 6>>
			<<He>> grasps your hips for purchase and tries to violate your <<pussy>>, but it's too late. <<His>> semen covers your labia. "Sometimes," <<he>> gasps. "It's like you're too hot."
			<br><br>
			<<vaginalentranceejacstat>><<ejacstat>><<set $hygiene += 500>><<set $vaginaoutsidesemen += 1>>
		<<case 7>>
			<<He>> moans as <<he>> approaches <<his>> peak, <<his>> $NPCList[0].penisdesc twitching against your <<pussy>>. Thick ropes of semen shoot over your labia and <<bottom>>. "You should get cleaned up," <<he>> pants, shutting <<his>> eyes for a moment.
			<br><br>
			<<vaginalentranceejacstat>><<ejacstat>><<set $hygiene += 500>><<set $vaginaoutsidesemen += 1>>
			<<bottomejacstat>><<ejacstat>><<set $hygiene += 500>><<set $bottomsemen += 1>>
		<</switch>>
	<<elseif $NPCList[0].penis is "vagina">>
		<<switch random(1, 7)>>
		<<case 1 2 3>>
			<<He>> pulls your hair and thrusts <<his>> $NPCList[0].penisdesc deep into your <<pussy>> as <<he>> cums. <<He>> holds you there a moment as warm semen fills you.
			<br><br>
			<<vaginalejacstat>><<ejacstat>><<set $hygiene += 500>><<set $vaginasemen += 1>>
		<<case 4 5 6>>
			<<He>> grasps your throat and pounds <<his>> $NPCList[0].penisdesc into you as <<he>> cums. Semen fills your <<pussy>> as you gasp for air.
			<<gstress>><<gtrauma>><<gpain>><<violence 3>><<bruise neck>><<hitstat>>
			<br><br>
			<<vaginalejacstat>><<ejacstat>><<set $hygiene += 500>><<set $vaginasemen += 1>>
		<<case 7>>
			<<He>> convulses as <<he>> thrusts into your <<pussy>>, <<his>> pelvis rubbing aganist your <<clit>> and $NPCList[0].penisdesc sending thick waves of cum into your body. Semen drips down your thighs. "I need to train you to hold cum better."
			<br><br>
			<<vaginalentranceejacstat>><<ejacstat>><<set $hygiene += 500>><<set $vaginaoutsidesemen += 1>>
			<<thighejacstat>><<ejacstat>><<set $hygiene += 500>><<set $thighsemen += 1>>
		<</switch>>
	<<elseif $NPCList[0].penis is "cheeks">>
		<<switch random(1, 7)>>
		<<case 1 2 3>>
			<<He>> shakes as <<he>> cums, <<his>> $NPCList[0].penisdesc erupting semen over your <<bottom>>. <<He>> gives you a light spank.
			<br><br>
			<<bottomejacstat>><<ejacstat>><<set $hygiene += 500>><<set $bottomsemen += 1>>
		<<case 4 5 6>>
			<<He>> pinches your <<bottom>>, then grasps your hips and pulls you closer, ejaculating over your cheeks.
			<br><br>
			<!-- Really should be onto PCs back given position. Or hair maybe. Esp next one -->
			<<bottomejacstat>><<ejacstat>><<set $hygiene += 500>><<set $bottomsemen += 1>>
		<<case 7>>
			<<He>> squeezes your <<bottom>> cheeks together and moans as <<he>> cums, ejaculating a massive load. "You're a mess," <<he>> gasps. "Go clean up."
			<br><br>
			<<bottomejacstat>><<ejacstat>><<set $hygiene += 1000>><<set $bottomsemen += 2>>
		<</switch>>
	<<elseif $NPCList[0].penis is "anusentrance" and $worn.genitals.type.includes("chastity") and $worn.genitals.anal_shield is 1>>
		<<He>> gasps as <<he>> cums, ejaculating over your $worn.genitals.name. "I'm going to ravage your ass," <<he>> says. "I just need to find the key."
		<br><br>
	<<elseif $NPCList[0].penis is "anusentrance">>
		<<switch random(1, 7)>>
		<<case 1 2 3>>
			<<He>> <span class="blue">slaps your <<bottom>></span> and rubs <<his>> $NPCList[0].penisdesc against you. <<He>> trembles as <<he>> cums, semen splattering onto your cheeks.
			<<gstress>><<gtrauma>><<gpain>><<violence 3>><<bruise bottom>><<hitstat>>
			<br><br>
			<<bottomejacstat>><<ejacstat>><<set $hygiene += 500>><<set $bottomsemen += 1>>
		<<case 4 5 6>>
			<<He>> rubs <<his>> $NPCList[0].penisdesc between your <<bottom>> cheeks. You feel it twitch as <<he>> cums, followed by warm semen on your skin.
			<br><br>
			<<bottomejacstat>><<ejacstat>><<set $hygiene += 500>><<set $bottomsemen += 1>>
		<<case 7>>
			<<He>> moans as <<his>> $NPCList[0].penisdesc erupts between your <<bottom>> cheeks, covering it with thick ropes of semen. "I went easy on you," <<he>> pants. "I wonder how you'd have handled my entire length inside."
			<br><br>
			<<bottomejacstat>><<ejacstat>><<set $hygiene += 1000>><<set $bottomsemen += 2>>
		<</switch>>
	<<elseif $NPCList[0].penis is "anusimminent" and $worn.genitals.type.includes("chastity") and $worn.genitals.anal_shield is 1>>
		<<He>> gasps as <<he>> cums, ejaculating over your $worn.genitals.name. "When I find the key," <<he>> pants. "Your ass is getting fucked hard."
		<br><br>
	<<elseif $NPCList[0].penis is "anusimminent">>
		<<switch random(1, 7)>>
		<<case 1 2 3>>
			<<He>> grasps your hips for purchase and tries to drive <<his>> $NPCList[0].penisdesc into your <<bottom>>. <<He>> cums before <<he>> can make it, covering your cheeks with semen. <span class="red"><<He>> smacks your ass in frustration.</span>
			<<gstress>><<gtrauma>><<gpain>><<violence 6>><<bruise bottom>><<hitstat>>
			<br><br>
			<<bottomejacstat>><<ejacstat>><<set $hygiene += 500>><<set $bottomsemen += 1>>
		<<case 4 5 6>>
			<<He>> tries to penetrate your <<bottom>> as <<he>> shudders into orgasm, but can't control <<his>> trembling body well enough. <<His>> cock slides wide, shooting white streams of semen over your cheeks. "You're such a tease," <<he>> gasps. "Next time I'm cumming inside."
			<br><br>
			<<bottomejacstat>><<ejacstat>><<set $hygiene += 500>><<set $bottomsemen += 1>>
		<<case 7>>
			<<He>> moans as <<his>> $NPCList[0].penisdesc twitches against your <<bottom>>, covering it with thick ropes of semen. "I took it easy on you. Next time you're taking my whole cock."
			<br><br>
			<<bottomejacstat>><<ejacstat>><<set $hygiene += 1000>><<set $bottomsemen += 2>>
		<</switch>>
	<<elseif $NPCList[0].penis is "anus">>
		<<switch random(1, 7)>>
		<<case 1 2 3>>
			<<He>> moans as <<he>> cums, <<his>> $NPCList[0].penisdesc pounding your <<bottom>> without mercy. <<His>> entire length fills you, pumping warm semen deep within.
			<br><br>
			<<analejacstat>><<ejacstat>><<set $hygiene += 500>><<set $anussemen += 1>>
		<<case 4 5 6>>
			<<He>> grasps your shoulders and pulls you against <<his>> $NPCList[0].penisdesc as <<he>> cums, pushing <<his>> entire length into you. Semen fills you as you cry out.
			<br><br>
			<<analejacstat>><<ejacstat>><<set $hygiene += 500>><<set $anussemen += 1>>
		<<case 7>>
			<<He>> convulses and, with a final thrust, cums into your ass. Thick waves of semen pump into you. Semen drips over your thighs. "You're a mess," <<he>> gasps. "Go clean yourself up."
			<br><br>
			<<analejacstat>><<ejacstat>><<set $hygiene += 500>><<set $anussemen += 1>>
			<<thighejacstat>><<ejacstat>><<set $hygiene += 500>><<set $thighsemen += 1>>
		<</switch>>
	<<elseif $NPCList[0].penis is "chest">>
		<<switch random(1, 7)>>
		<<case 1 2 3>>
			<<He>> rubs <<his>> $NPCList[0].penisdesc between your <<breasts>> as <<he>> cums, ejaculating onto them. "Don't forget who owns you."
			<br><br>
			<<chestejacstat>><<ejacstat>><<set $hygiene += 500>><<set $chestsemen += 1>>
		<<case 4 5 6>>
			<<He>> grasps your hair and forces you to look at <<him>>. <<He>> continues to rub <<his>> $NPCList[0].penisdesc between your <<breasts>>, until <<he>> shudders into orgasm. "I want you to look at me while performing your duties as my <<wife>>." Warm semen drips down your chest.
			<br><br>
			<<chestejacstat>><<ejacstat>><<set $hygiene += 500>><<set $chestsemen += 1>>
		<<case 7>>
			<<He>> grasps the back of your neck and mashes your face against <<his>> body as <<he>> cums. Semen shoots between your <<breasts>> and covers your <<if $position is "missionary">>face<<faceejacstat>><<ejacstat>><<set $hygiene += 500>><<set $facesemen += 1>><<else>>stomach<<tummyejacstat>><<ejacstat>><<set $hygiene += 500>><<set $tummysemen += 1>><</if>> as you gasp for air. "Remember. You need to be there for me whenever my cock needs servicing."
			<br><br>
			<<chestejacstat>><<ejacstat>><<set $hygiene += 500>><<set $chestsemen += 1>>
		<</switch>>
	<<elseif $NPCList[0].penis is "mouthentrance">>
		<<switch random(1, 7)>>
		<<case 1 2 3>>
			<<He>> rubs <<his>>. "Don't forget I'm your master. Now go clean up."
			<br><br>
			<<faceejacstat>><<ejacstat>><<set $hygiene += 500>><<set $facesemen += 1>>
		<<case 4 5 6>>
			<<He>> grasps your hair as <<he>> rubs <<his>> $NPCList[0].penisdesc against your face. <<He>> shudders, and ejaculates. "You're a mess," <<he>> gasps. "Go clean up."
			<br><br>
			<<faceejacstat>><<ejacstat>><<set $hygiene += 500>><<set $facesemen += 1>>
		<<case 7>>
			<<He>> grasps your hair tight in <<his>> fist as <<he>> rubs <<his>> $NPCList[0].penisdesc against your face. <span class="pink">You splutter and gag as thick ropes of cum push past your lips and into your mouth.</span> "You should have swallowed. Go clean up the mess."
			<br><br>
			<<faceejacstat>><<ejacstat>><<set $hygiene += 500>><<set $facesemen += 1>>
			<<oralejacstat>><<ejacstat>><<set $hunger -= 200>><<set $thirst -= 200>><<set $mouthsemen += 1>>
		<</switch>>
	<<elseif $NPCList[0].penis is "mouthimminent">>
		<<switch random(1, 7)>>
		<<case 1 2 3>>
			<<He>> holds your hair at the nape your neck as cum erupts from <<his>> $NPCList[0].penisdesc.
			<br><br>
			<<faceejacstat>><<ejacstat>><<set $hygiene += 500>><<set $facesemen += 1>>
		<<case 4 5 6>>
			<<He>> tries to push <<his>> $NPCList[0].penisdesc between your lips. The sensation is too much for <<him>>, and <<he>> cums early. "Fuck," <<he>> gasps, frustrated. "I wanted to feel your lips around me."
			<br><br>
			<<oralejacstat>><<ejacstat>><<set $hunger -= 200>><<set $thirst -= 200>><<set $mouthsemen += 1>>
		<<case 7>>
			<<He>> grasps the back of your head as <<his>> $NPCList[0].penisdesc presses against your mouth. <<He>> can't hold on any longer. <<He>> shudders as thick ropes of cum erupt onto your face, some pushing past your lips and into your mouth.
			<br><br>
			<<faceejacstat>><<ejacstat>><<set $hygiene += 500>><<set $facesemen += 1>>
			<<oralejacstat>><<ejacstat>><<set $hunger -= 200>><<set $thirst -= 200>><<set $mouthsemen += 1>>
		<</switch>>
	<<elseif $NPCList[0].penis is "mouth">>
		<<switch random(1, 7)>>
		<<case 1 2 3>>
			<<He>> grasps your chin with one hand and your hair with the other, shoving <<his>> $NPCList[0].penisdesc down your throat as <<he>> cums. You gag as <<his>> semen pumps into you, forcing you to swallow.
			<br><br>
			<<oralejacstat>><<ejacstat>><<set $hunger -= 200>><<set $thirst -= 200>><<set $mouthsemen += 1>>
		<<case 4 5 6>>
			<<He>> grasps your throat as <<his>> $NPCList[0].penisdesc trembles in your mouth. You gag as cum surges down your throat.
			<<oralejacstat>><<ejacstat>><<set $hunger -= 200>><<set $thirst -= 200>><<set $mouthsemen += 1>>
			<<gstress>><<gtrauma>><<gpain>><<violence 3>><<bruise neck>><<hitstat>>
			<br><br>
		<<case 7>>
			<<He>> grasps your hair with both hands, <<his>> $NPCList[0].penisdesc thrusting down your throat as <<he>> cums. Semen streams down your throat, then fills your mouth and covers your face as <<he>> pulls out. "I'm your protector," <<he>> pants. "You should show me respect."
			<<faceejacstat>><<ejacstat>><<set $hygiene += 500>><<set $facesemen += 1>>
			<<oralejacstat>><<ejacstat>><<set $hunger -= 200>><<set $thirst -= 200>><<set $mouthsemen += 1>>
			<br><br>
		<</switch>>
	<<elseif $NPCList[0].penis is "feet">>
		<<switch random(1, 7)>>
		<<case 1 2 3>>
			<<He>> pushes your feet together and thrusts <<his>> $NPCList[0].penisdesc between them as <<he>> cums, leaving them slick with ejaculate.
			<br><br>
			<<feetejacstat>><<ejacstat>><<set $hygiene += 500>><<set $feetsemen += 1>>
		<<case 4 5 6>>
			<<He>> moans as <<he>> cums on your feet, leaving them slick with semen.
			<br><br>
			<<feetejacstat>><<ejacstat>><<set $hygiene += 500>><<set $feetsemen += 1>>
		<<case 7>>
			<<He>> moans as <<he>> thrusts <<his>> $NPCList[0].penisdesc between your feet. Semen shoots onto your legs.
			<br><br>
			<<feetejacstat>><<ejacstat>><<set $hygiene += 500>><<set $feetsemen += 1>>
			<<thighejacstat>><<ejacstat>><<set $hygiene += 500>><<set $thighsemen += 1>>
		<</switch>>
	<<elseif $NPCList[0].penis is "leftarm" and $NPCList[0].penis is "rightarm">>
		<<switch random(1, 7)>>
		<<case 1 2 3>>
			<<He>> moans as <<he>> cums, <<his>> $NPCList[0].penisdesc pulsing between your hands.
			<br><br>
			<<handejacstat>><<ejacstat>><<set $hygiene += 500>><<set $leftarmsemen += 1>><<set $rightarmsemen += 1>>
		<<case 4 5 6>>
			<<He>> cums on your hands, leaving them slick with semen.
			<br><br>
			<<handejacstat>><<ejacstat>><<set $hygiene += 500>><<set $leftarmsemen += 1>><<set $rightarmsemen += 1>>
		<<case 7>>
			<<He>> thrusts <<his>> $NPCList[0].penisdesc between your hands harder as <<he>> cums. Semen shoots through the air, splattering your face. "You're a mess," <<he>> gasps. "My fault, but you need to clean up."
			<br><br>
			<<handejacstat>><<ejacstat>><<set $hygiene += 500>><<set $leftarmsemen += 1>><<set $rightarmsemen += 1>>
			<<faceejacstat>><<ejacstat>><<set $hygiene += 500>><<set $facesemen += 1>>
		<</switch>>
	<<elseif $NPCList[0].penis is "leftarm">>
		<<switch random(1, 7)>>
		<<case 1 2 3>>
			<<He>> moans as <<he>> cums, <<his>> $NPCList[0].penisdesc sliding between your fingers and leaving them slick with semen.
			<br><br>
			<<handejacstat>><<ejacstat>><<set $hygiene += 500>><<set $leftarmsemen += 1>>
		<<case 3 4>>
			<<He>> spasms as thick streams of semen erupt from <<his>> $NPCList[0].penisdesc. <<His>> convulsions send it sailing through the air. It splatters onto your face.
			<br><br>
			<<handejacstat>><<ejacstat>><<set $hygiene += 500>><<set $leftarmsemen += 1>>
			<<faceejacstat>><<ejacstat>><<set $hygiene += 500>><<set $facesemen += 1>>
		<<case 6 7>>
			<<He>> spasms and moans as thick streams of cum shoot onto your <<breasts>>. "I need to train you to control cock better."
			<br><br>
			<<handejacstat>><<ejacstat>><<set $hygiene += 500>><<set $leftarmsemen += 1>>
			<<chestejacstat>><<ejacstat>><<set $hygiene += 500>><<set $chestsemen += 1>>
		<</switch>>
	<<elseif $NPCList[0].penis is "rightarm">>
		<<switch random(1, 7)>>
		<<case 1 2 3>>
			<<He>> moans as your work <<his>> shaft with your right hand. You give <<him>> a final squeeze, and <<he>> cums, <<his>> whole body shuddering.
			<br><br>
			<<handejacstat>><<ejacstat>><<set $hygiene += 500>><<set $rightarmsemen += 1>>
		<<case 4 5>>
			<<He>> spasms and moans, thick streams of cum shooting from <<his>> $NPCList[0].penisdesc and landing on your face.
			<br><br>
			<<chestejacstat>><<ejacstat>><<set $hygiene += 500>><<set $chestsemen += 1>>
			<<handejacstat>><<ejacstat>><<set $hygiene += 500>><<set $rightarmsemen += 1>>
		<<case 6 7>>
			<<He>> moans as <<he>> cums in your hand, <<his>> whole body trembling. "Good <<girl>>," <<he>> gasps. "See? Your duties aren't so difficult."
			<br><br>
			<<handejacstat>><<ejacstat>><<set $hygiene += 500>><<set $rightarmsemen += 1>>
			<<oralejacstat>><<ejacstat>><<set $hunger -= 200>><<set $thirst -= 200>><<set $mouthsemen += 1>>
		<</switch>>
	<<elseif $NPCList[0].penis is 0>>
		<<switch random(1, 5)>>
		<<case 1>>
			<<He>> moans as <<he>> works <<his>> shaft and, giving <<his>> $NPCList[0].penisdesc a final squeeze, ejaculates onto your tummy. "Don't forget. You're mine whenever I want you."
			<br><br>
			<<tummyejacstat>><<ejacstat>><<set $hygiene += 500>><<set $tummysemen += 1>>
		<<case 2>>
			<<He>> rubs <<his>> $NPCList[0].penisdesc and aims at your face, covering it with semen. "Your place is on your knees, servicing my cock. Don't forget it."
			<br><br>
			<<faceejacstat>><<ejacstat>><<set $hygiene += 500>><<set $facesemen += 1>>
		<<case 3>>
			<<He>> strokes <<his>> $NPCList[0].penisdesc and ejaculates onto your <<bottom>>. "That's warm up for next time."
			<br><br>
			<<bottomejacstat>><<ejacstat>><<set $hygiene += 500>><<set $bottomsemen += 1>>
		<<case 4>>
			<<He>> strokes <<his>> $NPCList[0].penisdesc and moans as <<he>> ejaculates onto your <<breastsstop>> "Go clean up this mess."
			<br><br>
			<<chestejacstat>><<ejacstat>><<set $hygiene += 500>><<set $chestsemen += 1>>
		<<case 5>>
			<<He>> moans and shudders as cum flies all over your body. <<His>> muscles weakening, <<he>> leans on your shoulder for support.
			<br><br>
			<<chestejacstat>><<ejacstat>><<set $hygiene += 500>><<set $chestsemen += 1>>
			<<tummyejacstat>><<ejacstat>><<set $hygiene += 500>><<set $tummysemen += 1>>
			<<hairejacstat>><<ejacstat>><<set $hygiene += 500>><<set $hairsemen += 1>>
		<</switch>>
	<<elseif $NPCList[0].penis is "otheranus">>
		<<switch random(1, 7)>>
		<<case 1 2 3>>
			<<He>> moans as you fuck <<his>> ass, semen erupting from <<his>> $NPCList[0].penisdesc and pooling on the ground beneath <<him>>. "Don't think," <<he>> gasps. "That cumming from having your cock in ass means I can't protect you."
			<br><br>
		<<case 4 5>>
			<<He>> moans as you pound <<his>> ass, <<his>> ejaculate covering the ground beneath <<him>>.
			<br><br>
		<<case 6 7>>
			<<He>> moans as you fuck <<his>> ass, <<his>> semen arcing onto <<his>> own chest.
			<br><br>
		<</switch>>
	<<elseif $NPCList[0].penis is "otheranusfrot" or $NPCList[0].penis is "otheranusentrance" or $NPCList[0].penis is "otheranusimminent" and $worn.genitals.type.includes("chastity")>>
		<<He>> gasps as <<he>> cums, ejaculating over your $worn.genitals.name. "Once I get the key," <<he>> pants. "Your ass is gonna get ravaged."
		<br><br>
	<<elseif $NPCList[0].penis is "otheranusfrot" or $NPCList[0].penis is "otheranusentrance" or $NPCList[0].penis is "otheranusimminent">>
		<<switch random(1, 7)>>
		<<case 1 2 3>>
			<<He>> moans as you fuck <<his>> cheeks. <<He>> reaches behind you and grasps your <<bottom>>, rubbing against you as <<he>> climaxes. <<He>> ejaculates onto the ground. "Fuck me properly next time," <<he>> pants. "Don't be shy."
			<br><br>
		<<case 4 5>>
			<<He>> moans as you rub against <<his>> ass. <<His>> $NPCList[0].penis erupts onto the ground in front of <<him>>. "You're a tease," <<he>> gasps. "I couldn't take the anticipation.
			<br><br>
		<<case 6 7>>
			<<He>> sighs as <<his>> $NPCList[0].penis ejaculates onto <<his>> own chest. "That was fine," <<he>> pants. "But next time, you're getting penetrated."
			<br><br>
		<</switch>>
	<!-- Special case male PC being orally serviced by male NPC with no other contact -->
	<<elseif $NPCList[0].mouth is "penis">>
		<<switch random(1, 7)>>
		<<case 1 2 3>>
			<<He>> cums as you fuck <<his>> mouth, <<his>> whole body shuddering as <<his>> semen shoots from <<his>> $NPCList[0].penis and onto the floor beneath <<him>>.
			<br><br>
		<<case 4 5>>
			<<He>> cums on the ground as you fuck <<his>> mouth. <<He>> pulls away. "I'm done. For now."
			<br><br>
		<<case 6 7>>
			<<He>> grasps your
			<<if $player.ballsExist>>balls<<elseif $vaginaexist is 1>>pussy<</if>>
			and drives your cock down <<his>> throat. <<He>> ejcaultes on <<his>> own chest as <<he>> shudders around your length.
			<br><br>
		<</switch>>
	<<elseif $NPCList[0].penis is "othermouth">>
		<<He>> shakes with arousal as <<he>> cums.
		<br><br>
	<</if>>
<</if>>

<!-- Finishing moves for consensual with low anger or non-consensual with damage or high anger -->
<<if $consensual is 1 and $enemyanger lte 0>>

	<<switch random(1, 5)>>
	<<case 1 2>>
		<<He>> strokes you, <span class="green">making you feel warm inside.</span> "I hope you know how much I need you here."
		<<lstress>><<ltrauma>><<lpain>><<violence -3>>
		<br><br>
	<<case 3 4>>
		<<He>> strokes your hair, <span class="green">making you feel warm inside.</span> "Never ever leave me."
		<<lstress>><<ltrauma>><<lpain>><<violence -3>>
		<br><br>
	<<case 5>>
		<<He>> brushes your cheek with <<his>> hand. "You're so <<if $player.gender_appearance is "m">>handsome<<else>>beautiful<</if>> it makes me hurt." <span class="green">Your face flushes with pleasure.</span>
		<<lstress>><<ltrauma>><<lpain>><<violence -3>>
		<br><br>
	<</switch>>

<<elseif $consensual is 0 and $enemyhealth lte ($enemyhealthmax / 10) * 7.5>>

	Overcome by anger, <<he>> <span class="red">punches you.</span> "I expect your compliance," <<he>> snarls. "Defy me again and I might leave you naked in the woods for the wolves."
	<<gstress>><<gtrauma>><<gpain>><<violence 6>>
	<br><br>

<<elseif $consensual is 0 and $enemyhealth lte ($enemyhealthmax / 10) * 8.5>>

	<<He>> pins your arms back and <span class="pink">slaps your face.</span> "You need to learn your place. For your own good. Don't resist me."
	<<gstress>><<gtrauma>><<gpain>><<violence 3>>
	<br><br>

<<elseif $consensual is 0 and $enemyhealth lte ($enemyhealthmax / 10) * 9.5>>

	<<He>> <span class="pink">slaps your face.</span> "You need a reminder. You're here for my pleasure. Don't fight it."
	<<gstress>><<gtrauma>><<gpain>><<violence 2>>
	<br><br>

<</if>>

<</nobr>><</widget>>